<?xml version="1.0" encoding="UTF-8" standalone="yes"?>
<gpx xmlns="http://www.topografix.com/GPX/1/1" creator="DDAAXX TCX Extractor and Converter" version="1.1" xmlns:xsi="http://www.w3.org/2001/XMLSchema-instance" xsi:schemaLocation="http://www.topografix.com/GPX/1/1 http://www.topografix.com/GPX/1/1/gpx.xsd">
  <trk>
    <name>2011-03-20T07_3</name>
    <trkseg>
      <trkpt lat="25.0360970" lon="121.6141120">
        <ele>1.5850000</ele>
        <time>2011-03-20T07:34:44Z</time>
      </trkpt>
      <trkpt lat="25.0360940" lon="121.6141130">
        <ele>1.5850000</ele>
        <time>2011-03-20T07:34:46Z</time>
      </trkpt>
      <trkpt lat="25.0360630" lon="121.6141190">
        <ele>1.4470000</ele>
        <time>2011-03-20T07:34:48Z</time>
      </trkpt>
      <trkpt lat="25.0357060" lon="121.6141130">
        <ele>0.0850000</ele>
        <time>2011-03-20T07:34:58Z</time>
      </trkpt>
      <trkpt lat="25.0355880" lon="121.6142710">
        <ele>-0.3220000</ele>
        <time>2011-03-20T07:35:00Z</time>
      </trkpt>
      <trkpt lat="25.0355770" lon="121.6144710">
        <ele>-0.2570000</ele>
        <time>2011-03-20T07:35:03Z</time>
      </trkpt>
      <trkpt lat="25.0355690" lon="121.6146110">
        <ele>-0.2410000</ele>
        <time>2011-03-20T07:35:05Z</time>
      </trkpt>
      <trkpt lat="25.0355680" lon="121.6146410">
        <ele>-0.4740000</ele>
        <time>2011-03-20T07:35:09Z</time>
      </trkpt>
      <trkpt lat="25.0356380" lon="121.6151310">
        <ele>-0.4520000</ele>
        <time>2011-03-20T07:35:13Z</time>
      </trkpt>
      <trkpt lat="25.0357510" lon="121.6152090">
        <ele>-0.6180000</ele>
        <time>2011-03-20T07:35:16Z</time>
      </trkpt>
      <trkpt lat="25.0358540" lon="121.6152390">
        <ele>-0.5690000</ele>
        <time>2011-03-20T07:35:17Z</time>
      </trkpt>
      <trkpt lat="25.0361580" lon="121.6153300">
        <ele>-0.6740000</ele>
        <time>2011-03-20T07:35:20Z</time>
      </trkpt>
      <trkpt lat="25.0364130" lon="121.6154120">
        <ele>-0.0350000</ele>
        <time>2011-03-20T07:35:25Z</time>
      </trkpt>
      <trkpt lat="25.0364990" lon="121.6155380">
        <ele>-1.2150000</ele>
        <time>2011-03-20T07:35:29Z</time>
      </trkpt>
      <trkpt lat="25.0365260" lon="121.6158830">
        <ele>-1.2640000</ele>
        <time>2011-03-20T07:35:34Z</time>
      </trkpt>
      <trkpt lat="25.0365330" lon="121.6160140">
        <ele>-2.1030000</ele>
        <time>2011-03-20T07:35:37Z</time>
      </trkpt>
      <trkpt lat="25.0365330" lon="121.6160140">
        <ele>-2.1250000</ele>
        <time>2011-03-20T07:35:40Z</time>
      </trkpt>
      <trkpt lat="25.0364080" lon="121.6168020">
        <ele>-2.4160000</ele>
        <time>2011-03-20T07:35:44Z</time>
      </trkpt>
      <trkpt lat="25.0363830" lon="121.6169370">
        <ele>-2.7730000</ele>
        <time>2011-03-20T07:35:48Z</time>
      </trkpt>
      <trkpt lat="25.0363830" lon="121.6169370">
        <ele>-2.7000000</ele>
        <time>2011-03-20T07:35:52Z</time>
      </trkpt>
      <trkpt lat="25.0369040" lon="121.6169820">
        <ele>-2.5830000</ele>
        <time>2011-03-20T07:35:55Z</time>
      </trkpt>
      <trkpt lat="25.0371990" lon="121.6170070">
        <ele>-2.8260000</ele>
        <time>2011-03-20T07:35:59Z</time>
      </trkpt>
      <trkpt lat="25.0373490" lon="121.6170190">
        <ele>-2.6470000</ele>
        <time>2011-03-20T07:36:01Z</time>
      </trkpt>
      <trkpt lat="25.0375720" lon="121.6170050">
        <ele>-2.3420000</ele>
        <time>2011-03-20T07:36:04Z</time>
      </trkpt>
      <trkpt lat="25.0379880" lon="121.6169630">
        <ele>-2.0980000</ele>
        <time>2011-03-20T07:36:11Z</time>
      </trkpt>
      <trkpt lat="25.0381150" lon="121.6169590">
        <ele>-1.9130000</ele>
        <time>2011-03-20T07:36:13Z</time>
      </trkpt>
      <trkpt lat="25.0383080" lon="121.6169890">
        <ele>-1.5670000</ele>
        <time>2011-03-20T07:36:16Z</time>
      </trkpt>
      <trkpt lat="25.0386180" lon="121.6171230">
        <ele>-1.8590000</ele>
        <time>2011-03-20T07:36:21Z</time>
      </trkpt>
      <trkpt lat="25.0387190" lon="121.6171880">
        <ele>-1.8580000</ele>
        <time>2011-03-20T07:36:23Z</time>
      </trkpt>
      <trkpt lat="25.0388290" lon="121.6172590">
        <ele>-1.7450000</ele>
        <time>2011-03-20T07:36:25Z</time>
      </trkpt>
      <trkpt lat="25.0391300" lon="121.6173550">
        <ele>-1.8610000</ele>
        <time>2011-03-20T07:36:30Z</time>
      </trkpt>
      <trkpt lat="25.0392180" lon="121.6173770">
        <ele>-1.8770000</ele>
        <time>2011-03-20T07:36:31Z</time>
      </trkpt>
      <trkpt lat="25.0396910" lon="121.6174910">
        <ele>-2.2950000</ele>
        <time>2011-03-20T07:36:37Z</time>
      </trkpt>
      <trkpt lat="25.0400030" lon="121.6175540">
        <ele>-1.9860000</ele>
        <time>2011-03-20T07:36:41Z</time>
      </trkpt>
      <trkpt lat="25.0403120" lon="121.6176130">
        <ele>-2.1080000</ele>
        <time>2011-03-20T07:36:45Z</time>
      </trkpt>
      <trkpt lat="25.0405240" lon="121.6176450">
        <ele>-2.2470000</ele>
        <time>2011-03-20T07:36:48Z</time>
      </trkpt>
      <trkpt lat="25.0407670" lon="121.6175990">
        <ele>-2.1830000</ele>
        <time>2011-03-20T07:36:52Z</time>
      </trkpt>
      <trkpt lat="25.0409760" lon="121.6174690">
        <ele>-1.9380000</ele>
        <time>2011-03-20T07:36:55Z</time>
      </trkpt>
      <trkpt lat="25.0413100" lon="121.6171630">
        <ele>-1.9350000</ele>
        <time>2011-03-20T07:37:01Z</time>
      </trkpt>
      <trkpt lat="25.0415450" lon="121.6169460">
        <ele>-1.8870000</ele>
        <time>2011-03-20T07:37:06Z</time>
      </trkpt>
      <trkpt lat="25.0417230" lon="121.6168400">
        <ele>-1.6960000</ele>
        <time>2011-03-20T07:37:09Z</time>
      </trkpt>
      <trkpt lat="25.0419960" lon="121.6167870">
        <ele>-1.6380000</ele>
        <time>2011-03-20T07:37:14Z</time>
      </trkpt>
      <trkpt lat="25.0421490" lon="121.6168100">
        <ele>-1.7510000</ele>
        <time>2011-03-20T07:37:17Z</time>
      </trkpt>
      <trkpt lat="25.0423670" lon="121.6168840">
        <ele>-1.4730000</ele>
        <time>2011-03-20T07:37:23Z</time>
      </trkpt>
      <trkpt lat="25.0424450" lon="121.6169480">
        <ele>-1.7470000</ele>
        <time>2011-03-20T07:37:26Z</time>
      </trkpt>
      <trkpt lat="25.0423860" lon="121.6170170">
        <ele>-1.6090000</ele>
        <time>2011-03-20T07:37:27Z</time>
      </trkpt>
      <trkpt lat="25.0422430" lon="121.6171390">
        <ele>-1.9170000</ele>
        <time>2011-03-20T07:37:31Z</time>
      </trkpt>
      <trkpt lat="25.0419650" lon="121.6174600">
        <ele>-1.3080000</ele>
        <time>2011-03-20T07:37:37Z</time>
      </trkpt>
      <trkpt lat="25.0417500" lon="121.6177470">
        <ele>-0.8690000</ele>
        <time>2011-03-20T07:37:42Z</time>
      </trkpt>
      <trkpt lat="25.0414460" lon="121.6181620">
        <ele>-0.6320000</ele>
        <time>2011-03-20T07:37:49Z</time>
      </trkpt>
      <trkpt lat="25.0412220" lon="121.6184660">
        <ele>-0.6780000</ele>
        <time>2011-03-20T07:37:54Z</time>
      </trkpt>
      <trkpt lat="25.0409340" lon="121.6188600">
        <ele>-0.3690000</ele>
        <time>2011-03-20T07:38:01Z</time>
      </trkpt>
      <trkpt lat="25.0408970" lon="121.6189110">
        <ele>-0.1230000</ele>
        <time>2011-03-20T07:38:02Z</time>
      </trkpt>
      <trkpt lat="25.0404780" lon="121.6194730">
        <ele>0.3710000</ele>
        <time>2011-03-20T07:38:11Z</time>
      </trkpt>
      <trkpt lat="25.0401480" lon="121.6199350">
        <ele>0.8260000</ele>
        <time>2011-03-20T07:38:18Z</time>
      </trkpt>
      <trkpt lat="25.0399050" lon="121.6202830">
        <ele>1.4060000</ele>
        <time>2011-03-20T07:38:23Z</time>
      </trkpt>
      <trkpt lat="25.0398750" lon="121.6203270">
        <ele>1.4490000</ele>
        <time>2011-03-20T07:38:25Z</time>
      </trkpt>
      <trkpt lat="25.0398260" lon="121.6204050">
        <ele>1.6130000</ele>
        <time>2011-03-20T07:38:29Z</time>
      </trkpt>
      <trkpt lat="25.0397810" lon="121.6204810">
        <ele>1.5080000</ele>
        <time>2011-03-20T07:38:32Z</time>
      </trkpt>
      <trkpt lat="25.0396750" lon="121.6206600">
        <ele>1.4160000</ele>
        <time>2011-03-20T07:38:36Z</time>
      </trkpt>
      <trkpt lat="25.0394460" lon="121.6210480">
        <ele>1.4620000</ele>
        <time>2011-03-20T07:38:41Z</time>
      </trkpt>
      <trkpt lat="25.0392080" lon="121.6214590">
        <ele>2.1040000</ele>
        <time>2011-03-20T07:38:47Z</time>
      </trkpt>
      <trkpt lat="25.0391080" lon="121.6216360">
        <ele>2.7810000</ele>
        <time>2011-03-20T07:38:50Z</time>
      </trkpt>
      <trkpt lat="25.0391080" lon="121.6216360">
        <ele>3.2760000</ele>
        <time>2011-03-20T07:38:51Z</time>
      </trkpt>
      <trkpt lat="25.0385740" lon="121.6214650">
        <ele>3.7620000</ele>
        <time>2011-03-20T07:38:58Z</time>
      </trkpt>
      <trkpt lat="25.0382010" lon="121.6213200">
        <ele>5.5080000</ele>
        <time>2011-03-20T07:39:04Z</time>
      </trkpt>
      <trkpt lat="25.0380780" lon="121.6212660">
        <ele>5.9660000</ele>
        <time>2011-03-20T07:39:06Z</time>
      </trkpt>
      <trkpt lat="25.0377920" lon="121.6211120">
        <ele>7.3830000</ele>
        <time>2011-03-20T07:39:11Z</time>
      </trkpt>
      <trkpt lat="25.0375030" lon="121.6209010">
        <ele>9.2500000</ele>
        <time>2011-03-20T07:39:18Z</time>
      </trkpt>
      <trkpt lat="25.0374740" lon="121.6208790">
        <ele>9.4180000</ele>
        <time>2011-03-20T07:39:19Z</time>
      </trkpt>
      <trkpt lat="25.0372590" lon="121.6207140">
        <ele>11.1950000</ele>
        <time>2011-03-20T07:39:26Z</time>
      </trkpt>
      <trkpt lat="25.0371070" lon="121.6205980">
        <ele>13.0750000</ele>
        <time>2011-03-20T07:39:32Z</time>
      </trkpt>
      <trkpt lat="25.0368830" lon="121.6204270">
        <ele>15.5220000</ele>
        <time>2011-03-20T07:39:42Z</time>
      </trkpt>
      <trkpt lat="25.0367200" lon="121.6203010">
        <ele>17.2840000</ele>
        <time>2011-03-20T07:39:50Z</time>
      </trkpt>
      <trkpt lat="25.0366230" lon="121.6202270">
        <ele>18.9020000</ele>
        <time>2011-03-20T07:39:56Z</time>
      </trkpt>
      <trkpt lat="25.0364510" lon="121.6200940">
        <ele>20.8300000</ele>
        <time>2011-03-20T07:40:05Z</time>
      </trkpt>
      <trkpt lat="25.0362750" lon="121.6199840">
        <ele>21.6010000</ele>
        <time>2011-03-20T07:40:11Z</time>
      </trkpt>
      <trkpt lat="25.0360280" lon="121.6199020">
        <ele>21.8020000</ele>
        <time>2011-03-20T07:40:17Z</time>
      </trkpt>
      <trkpt lat="25.0358010" lon="121.6197890">
        <ele>22.3600000</ele>
        <time>2011-03-20T07:40:22Z</time>
      </trkpt>
      <trkpt lat="25.0356840" lon="121.6196710">
        <ele>21.4740000</ele>
        <time>2011-03-20T07:40:25Z</time>
      </trkpt>
      <trkpt lat="25.0354060" lon="121.6192490">
        <ele>22.4200000</ele>
        <time>2011-03-20T07:40:33Z</time>
      </trkpt>
      <trkpt lat="25.0352740" lon="121.6190050">
        <ele>21.6480000</ele>
        <time>2011-03-20T07:40:37Z</time>
      </trkpt>
      <trkpt lat="25.0350570" lon="121.6187430">
        <ele>21.5510000</ele>
        <time>2011-03-20T07:40:42Z</time>
      </trkpt>
      <trkpt lat="25.0348380" lon="121.6187010">
        <ele>21.9790000</ele>
        <time>2011-03-20T07:40:46Z</time>
      </trkpt>
      <trkpt lat="25.0346300" lon="121.6187690">
        <ele>22.8050000</ele>
        <time>2011-03-20T07:40:50Z</time>
      </trkpt>
      <trkpt lat="25.0345380" lon="121.6188220">
        <ele>23.3690000</ele>
        <time>2011-03-20T07:40:53Z</time>
      </trkpt>
      <trkpt lat="25.0343790" lon="121.6189460">
        <ele>24.1810000</ele>
        <time>2011-03-20T07:40:57Z</time>
      </trkpt>
      <trkpt lat="25.0342310" lon="121.6191210">
        <ele>25.1550000</ele>
        <time>2011-03-20T07:41:02Z</time>
      </trkpt>
      <trkpt lat="25.0341940" lon="121.6191690">
        <ele>25.5940000</ele>
        <time>2011-03-20T07:41:05Z</time>
      </trkpt>
      <trkpt lat="25.0343270" lon="121.6193730">
        <ele>26.0930000</ele>
        <time>2011-03-20T07:41:07Z</time>
      </trkpt>
      <trkpt lat="25.0344450" lon="121.6195540">
        <ele>27.6050000</ele>
        <time>2011-03-20T07:41:11Z</time>
      </trkpt>
      <trkpt lat="25.0346240" lon="121.6198300">
        <ele>29.4040000</ele>
        <time>2011-03-20T07:41:18Z</time>
      </trkpt>
      <trkpt lat="25.0347610" lon="121.6200410">
        <ele>31.0410000</ele>
        <time>2011-03-20T07:41:24Z</time>
      </trkpt>
      <trkpt lat="25.0349410" lon="121.6203170">
        <ele>33.4680000</ele>
        <time>2011-03-20T07:41:32Z</time>
      </trkpt>
      <trkpt lat="25.0351970" lon="121.6209250">
        <ele>37.4800000</ele>
        <time>2011-03-20T07:41:48Z</time>
      </trkpt>
      <trkpt lat="25.0352240" lon="121.6212240">
        <ele>38.6580000</ele>
        <time>2011-03-20T07:41:55Z</time>
      </trkpt>
      <trkpt lat="25.0352240" lon="121.6216140">
        <ele>40.3950000</ele>
        <time>2011-03-20T07:42:04Z</time>
      </trkpt>
      <trkpt lat="25.0352150" lon="121.6217030">
        <ele>40.8100000</ele>
        <time>2011-03-20T07:42:06Z</time>
      </trkpt>
      <trkpt lat="25.0351240" lon="121.6219750">
        <ele>42.6030000</ele>
        <time>2011-03-20T07:42:13Z</time>
      </trkpt>
      <trkpt lat="25.0349920" lon="121.6220960">
        <ele>43.9640000</ele>
        <time>2011-03-20T07:42:18Z</time>
      </trkpt>
      <trkpt lat="25.0348380" lon="121.6221730">
        <ele>45.1530000</ele>
        <time>2011-03-20T07:42:23Z</time>
      </trkpt>
      <trkpt lat="25.0347350" lon="121.6221730">
        <ele>46.4200000</ele>
        <time>2011-03-20T07:42:28Z</time>
      </trkpt>
      <trkpt lat="25.0346270" lon="121.6221730">
        <ele>47.7100000</ele>
        <time>2011-03-20T07:42:34Z</time>
      </trkpt>
      <trkpt lat="25.0344400" lon="121.6221270">
        <ele>49.2070000</ele>
        <time>2011-03-20T07:42:42Z</time>
      </trkpt>
      <trkpt lat="25.0342770" lon="121.6220870">
        <ele>50.8390000</ele>
        <time>2011-03-20T07:42:49Z</time>
      </trkpt>
      <trkpt lat="25.0341120" lon="121.6221280">
        <ele>51.7570000</ele>
        <time>2011-03-20T07:42:56Z</time>
      </trkpt>
      <trkpt lat="25.0339820" lon="121.6222850">
        <ele>53.5540000</ele>
        <time>2011-03-20T07:43:03Z</time>
      </trkpt>
      <trkpt lat="25.0339080" lon="121.6224710">
        <ele>55.2570000</ele>
        <time>2011-03-20T07:43:09Z</time>
      </trkpt>
      <trkpt lat="25.0337850" lon="121.6226990">
        <ele>56.9640000</ele>
        <time>2011-03-20T07:43:18Z</time>
      </trkpt>
      <trkpt lat="25.0336730" lon="121.6228790">
        <ele>58.0830000</ele>
        <time>2011-03-20T07:43:25Z</time>
      </trkpt>
      <trkpt lat="25.0334900" lon="121.6231350">
        <ele>60.2970000</ele>
        <time>2011-03-20T07:43:35Z</time>
      </trkpt>
      <trkpt lat="25.0333680" lon="121.6231970">
        <ele>61.6390000</ele>
        <time>2011-03-20T07:43:40Z</time>
      </trkpt>
      <trkpt lat="25.0332250" lon="121.6232160">
        <ele>63.1980000</ele>
        <time>2011-03-20T07:43:45Z</time>
      </trkpt>
      <trkpt lat="25.0329760" lon="121.6230450">
        <ele>65.0240000</ele>
        <time>2011-03-20T07:43:54Z</time>
      </trkpt>
      <trkpt lat="25.0326320" lon="121.6228170">
        <ele>68.9020000</ele>
        <time>2011-03-20T07:44:11Z</time>
      </trkpt>
      <trkpt lat="25.0323930" lon="121.6227190">
        <ele>71.2250000</ele>
        <time>2011-03-20T07:44:21Z</time>
      </trkpt>
      <trkpt lat="25.0321780" lon="121.6225480">
        <ele>73.0940000</ele>
        <time>2011-03-20T07:44:30Z</time>
      </trkpt>
      <trkpt lat="25.0320150" lon="121.6224160">
        <ele>74.4670000</ele>
        <time>2011-03-20T07:44:37Z</time>
      </trkpt>
      <trkpt lat="25.0318460" lon="121.6223600">
        <ele>74.7580000</ele>
        <time>2011-03-20T07:44:43Z</time>
      </trkpt>
      <trkpt lat="25.0315000" lon="121.6223180">
        <ele>78.0830000</ele>
        <time>2011-03-20T07:44:55Z</time>
      </trkpt>
      <trkpt lat="25.0312870" lon="121.6222640">
        <ele>80.1100000</ele>
        <time>2011-03-20T07:45:03Z</time>
      </trkpt>
      <trkpt lat="25.0311290" lon="121.6221710">
        <ele>81.0730000</ele>
        <time>2011-03-20T07:45:09Z</time>
      </trkpt>
      <trkpt lat="25.0309850" lon="121.6219160">
        <ele>82.5960000</ele>
        <time>2011-03-20T07:45:18Z</time>
      </trkpt>
      <trkpt lat="25.0308770" lon="121.6216770">
        <ele>84.7340000</ele>
        <time>2011-03-20T07:45:27Z</time>
      </trkpt>
      <trkpt lat="25.0307980" lon="121.6215050">
        <ele>86.5200000</ele>
        <time>2011-03-20T07:45:35Z</time>
      </trkpt>
      <trkpt lat="25.0307280" lon="121.6213510">
        <ele>88.3510000</ele>
        <time>2011-03-20T07:45:43Z</time>
      </trkpt>
      <trkpt lat="25.0306770" lon="121.6212410">
        <ele>89.7180000</ele>
        <time>2011-03-20T07:45:49Z</time>
      </trkpt>
      <trkpt lat="25.0306320" lon="121.6211430">
        <ele>90.9170000</ele>
        <time>2011-03-20T07:45:56Z</time>
      </trkpt>
      <trkpt lat="25.0305680" lon="121.6210780">
        <ele>92.0760000</ele>
        <time>2011-03-20T07:46:02Z</time>
      </trkpt>
      <trkpt lat="25.0303970" lon="121.6210360">
        <ele>94.1610000</ele>
        <time>2011-03-20T07:46:10Z</time>
      </trkpt>
      <trkpt lat="25.0302660" lon="121.6210610">
        <ele>95.0330000</ele>
        <time>2011-03-20T07:46:16Z</time>
      </trkpt>
      <trkpt lat="25.0301600" lon="121.6211020">
        <ele>96.5810000</ele>
        <time>2011-03-20T07:46:22Z</time>
      </trkpt>
      <trkpt lat="25.0300030" lon="121.6211630">
        <ele>97.5380000</ele>
        <time>2011-03-20T07:46:30Z</time>
      </trkpt>
      <trkpt lat="25.0297900" lon="121.6212240">
        <ele>99.4680000</ele>
        <time>2011-03-20T07:46:39Z</time>
      </trkpt>
      <trkpt lat="25.0295790" lon="121.6212680">
        <ele>101.1130000</ele>
        <time>2011-03-20T07:46:48Z</time>
      </trkpt>
      <trkpt lat="25.0294490" lon="121.6212900">
        <ele>102.7090000</ele>
        <time>2011-03-20T07:46:54Z</time>
      </trkpt>
      <trkpt lat="25.0292890" lon="121.6214410">
        <ele>104.1030000</ele>
        <time>2011-03-20T07:47:02Z</time>
      </trkpt>
      <trkpt lat="25.0291800" lon="121.6216670">
        <ele>106.6700000</ele>
        <time>2011-03-20T07:47:11Z</time>
      </trkpt>
      <trkpt lat="25.0291260" lon="121.6218070">
        <ele>107.4100000</ele>
        <time>2011-03-20T07:47:18Z</time>
      </trkpt>
      <trkpt lat="25.0290660" lon="121.6219660">
        <ele>109.5870000</ele>
        <time>2011-03-20T07:47:26Z</time>
      </trkpt>
      <trkpt lat="25.0290070" lon="121.6221350">
        <ele>111.7650000</ele>
        <time>2011-03-20T07:47:35Z</time>
      </trkpt>
      <trkpt lat="25.0288790" lon="121.6222740">
        <ele>114.3160000</ele>
        <time>2011-03-20T07:47:45Z</time>
      </trkpt>
      <trkpt lat="25.0284670" lon="121.6224160">
        <ele>116.7310000</ele>
        <time>2011-03-20T07:48:02Z</time>
      </trkpt>
      <trkpt lat="25.0282140" lon="121.6224400">
        <ele>117.7450000</ele>
        <time>2011-03-20T07:48:09Z</time>
      </trkpt>
      <trkpt lat="25.0278580" lon="121.6225830">
        <ele>118.9070000</ele>
        <time>2011-03-20T07:48:19Z</time>
      </trkpt>
      <trkpt lat="25.0276030" lon="121.6227570">
        <ele>120.6270000</ele>
        <time>2011-03-20T07:48:27Z</time>
      </trkpt>
      <trkpt lat="25.0274950" lon="121.6230350">
        <ele>122.7940000</ele>
        <time>2011-03-20T07:48:35Z</time>
      </trkpt>
      <trkpt lat="25.0273760" lon="121.6233420">
        <ele>125.1240000</ele>
        <time>2011-03-20T07:48:45Z</time>
      </trkpt>
      <trkpt lat="25.0272870" lon="121.6235210">
        <ele>126.9210000</ele>
        <time>2011-03-20T07:48:51Z</time>
      </trkpt>
      <trkpt lat="25.0271350" lon="121.6236460">
        <ele>128.7310000</ele>
        <time>2011-03-20T07:48:59Z</time>
      </trkpt>
      <trkpt lat="25.0269770" lon="121.6236960">
        <ele>129.9450000</ele>
        <time>2011-03-20T07:49:05Z</time>
      </trkpt>
      <trkpt lat="25.0267070" lon="121.6236790">
        <ele>131.6840000</ele>
        <time>2011-03-20T07:49:13Z</time>
      </trkpt>
      <trkpt lat="25.0264020" lon="121.6235040">
        <ele>133.4070000</ele>
        <time>2011-03-20T07:49:23Z</time>
      </trkpt>
      <trkpt lat="25.0262810" lon="121.6234410">
        <ele>134.6690000</ele>
        <time>2011-03-20T07:49:28Z</time>
      </trkpt>
      <trkpt lat="25.0261470" lon="121.6234760">
        <ele>135.5640000</ele>
        <time>2011-03-20T07:49:33Z</time>
      </trkpt>
      <trkpt lat="25.0260470" lon="121.6235210">
        <ele>136.7850000</ele>
        <time>2011-03-20T07:49:38Z</time>
      </trkpt>
      <trkpt lat="25.0259870" lon="121.6235780">
        <ele>137.1610000</ele>
        <time>2011-03-20T07:49:41Z</time>
      </trkpt>
      <trkpt lat="25.0258720" lon="121.6238180">
        <ele>138.3580000</ele>
        <time>2011-03-20T07:49:48Z</time>
      </trkpt>
      <trkpt lat="25.0257570" lon="121.6240650">
        <ele>139.8870000</ele>
        <time>2011-03-20T07:49:56Z</time>
      </trkpt>
      <trkpt lat="25.0255700" lon="121.6241800">
        <ele>141.2230000</ele>
        <time>2011-03-20T07:50:03Z</time>
      </trkpt>
      <trkpt lat="25.0253080" lon="121.6242770">
        <ele>143.1350000</ele>
        <time>2011-03-20T07:50:12Z</time>
      </trkpt>
      <trkpt lat="25.0250540" lon="121.6243670">
        <ele>145.0440000</ele>
        <time>2011-03-20T07:50:21Z</time>
      </trkpt>
      <trkpt lat="25.0247910" lon="121.6244080">
        <ele>146.9040000</ele>
        <time>2011-03-20T07:50:30Z</time>
      </trkpt>
      <trkpt lat="25.0245420" lon="121.6244150">
        <ele>149.3170000</ele>
        <time>2011-03-20T07:50:39Z</time>
      </trkpt>
      <trkpt lat="25.0243180" lon="121.6244220">
        <ele>151.5730000</ele>
        <time>2011-03-20T07:50:48Z</time>
      </trkpt>
      <trkpt lat="25.0241030" lon="121.6244290">
        <ele>153.8020000</ele>
        <time>2011-03-20T07:50:57Z</time>
      </trkpt>
      <trkpt lat="25.0238510" lon="121.6244400">
        <ele>156.1350000</ele>
        <time>2011-03-20T07:51:07Z</time>
      </trkpt>
      <trkpt lat="25.0236280" lon="121.6244490">
        <ele>158.3580000</ele>
        <time>2011-03-20T07:51:16Z</time>
      </trkpt>
      <trkpt lat="25.0234100" lon="121.6244590">
        <ele>160.2260000</ele>
        <time>2011-03-20T07:51:25Z</time>
      </trkpt>
      <trkpt lat="25.0232360" lon="121.6244660">
        <ele>162.2130000</ele>
        <time>2011-03-20T07:51:32Z</time>
      </trkpt>
      <trkpt lat="25.0230150" lon="121.6244280">
        <ele>164.0770000</ele>
        <time>2011-03-20T07:51:39Z</time>
      </trkpt>
      <trkpt lat="25.0227940" lon="121.6242570">
        <ele>165.3630000</ele>
        <time>2011-03-20T07:51:45Z</time>
      </trkpt>
      <trkpt lat="25.0226800" lon="121.6239330">
        <ele>166.7920000</ele>
        <time>2011-03-20T07:51:54Z</time>
      </trkpt>
      <trkpt lat="25.0225730" lon="121.6236650">
        <ele>168.1470000</ele>
        <time>2011-03-20T07:52:01Z</time>
      </trkpt>
      <trkpt lat="25.0225430" lon="121.6235890">
        <ele>168.5670000</ele>
        <time>2011-03-20T07:52:03Z</time>
      </trkpt>
      <trkpt lat="25.0223660" lon="121.6235030">
        <ele>169.4180000</ele>
        <time>2011-03-20T07:52:09Z</time>
      </trkpt>
      <trkpt lat="25.0222330" lon="121.6235180">
        <ele>169.7950000</ele>
        <time>2011-03-20T07:52:12Z</time>
      </trkpt>
      <trkpt lat="25.0220490" lon="121.6235710">
        <ele>170.3390000</ele>
        <time>2011-03-20T07:52:16Z</time>
      </trkpt>
      <trkpt lat="25.0218800" lon="121.6236190">
        <ele>171.2660000</ele>
        <time>2011-03-20T07:52:20Z</time>
      </trkpt>
      <trkpt lat="25.0217940" lon="121.6236420">
        <ele>171.4830000</ele>
        <time>2011-03-20T07:52:22Z</time>
      </trkpt>
      <trkpt lat="25.0215270" lon="121.6235940">
        <ele>172.9820000</ele>
        <time>2011-03-20T07:52:28Z</time>
      </trkpt>
      <trkpt lat="25.0213330" lon="121.6234240">
        <ele>173.8380000</ele>
        <time>2011-03-20T07:52:33Z</time>
      </trkpt>
      <trkpt lat="25.0211500" lon="121.6231210">
        <ele>175.4490000</ele>
        <time>2011-03-20T07:52:41Z</time>
      </trkpt>
      <trkpt lat="25.0209450" lon="121.6227820">
        <ele>177.3750000</ele>
        <time>2011-03-20T07:52:50Z</time>
      </trkpt>
      <trkpt lat="25.0204280" lon="121.6222280">
        <ele>182.5330000</ele>
        <time>2011-03-20T07:53:10Z</time>
      </trkpt>
      <trkpt lat="25.0202820" lon="121.6221370">
        <ele>183.2600000</ele>
        <time>2011-03-20T07:53:15Z</time>
      </trkpt>
      <trkpt lat="25.0201700" lon="121.6221190">
        <ele>183.4630000</ele>
        <time>2011-03-20T07:53:18Z</time>
      </trkpt>
      <trkpt lat="25.0199630" lon="121.6221270">
        <ele>183.3500000</ele>
        <time>2011-03-20T07:53:22Z</time>
      </trkpt>
      <trkpt lat="25.0196210" lon="121.6222310">
        <ele>183.4630000</ele>
        <time>2011-03-20T07:53:27Z</time>
      </trkpt>
      <trkpt lat="25.0194680" lon="121.6222530">
        <ele>182.8460000</ele>
        <time>2011-03-20T07:53:29Z</time>
      </trkpt>
      <trkpt lat="25.0191800" lon="121.6223590">
        <ele>183.6590000</ele>
        <time>2011-03-20T07:53:33Z</time>
      </trkpt>
      <trkpt lat="25.0191100" lon="121.6226020">
        <ele>183.9200000</ele>
        <time>2011-03-20T07:53:36Z</time>
      </trkpt>
      <trkpt lat="25.0191560" lon="121.6227480">
        <ele>184.9510000</ele>
        <time>2011-03-20T07:53:38Z</time>
      </trkpt>
      <trkpt lat="25.0191890" lon="121.6229700">
        <ele>187.0810000</ele>
        <time>2011-03-20T07:53:42Z</time>
      </trkpt>
      <trkpt lat="25.0191770" lon="121.6230180">
        <ele>187.4680000</ele>
        <time>2011-03-20T07:53:43Z</time>
      </trkpt>
      <trkpt lat="25.0190120" lon="121.6232880">
        <ele>189.7860000</ele>
        <time>2011-03-20T07:53:51Z</time>
      </trkpt>
      <trkpt lat="25.0187930" lon="121.6234990">
        <ele>191.5910000</ele>
        <time>2011-03-20T07:53:59Z</time>
      </trkpt>
      <trkpt lat="25.0186130" lon="121.6235460">
        <ele>192.7330000</ele>
        <time>2011-03-20T07:54:04Z</time>
      </trkpt>
      <trkpt lat="25.0184430" lon="121.6235290">
        <ele>193.8610000</ele>
        <time>2011-03-20T07:54:09Z</time>
      </trkpt>
      <trkpt lat="25.0180910" lon="121.6233330">
        <ele>196.6030000</ele>
        <time>2011-03-20T07:54:20Z</time>
      </trkpt>
      <trkpt lat="25.0177610" lon="121.6231320">
        <ele>199.5310000</ele>
        <time>2011-03-20T07:54:31Z</time>
      </trkpt>
      <trkpt lat="25.0175270" lon="121.6230530">
        <ele>200.8800000</ele>
        <time>2011-03-20T07:54:38Z</time>
      </trkpt>
      <trkpt lat="25.0174790" lon="121.6230530">
        <ele>201.7260000</ele>
        <time>2011-03-20T07:54:45Z</time>
      </trkpt>
      <trkpt lat="25.0171300" lon="121.6230730">
        <ele>201.6760000</ele>
        <time>2011-03-20T07:54:48Z</time>
      </trkpt>
      <trkpt lat="25.0168990" lon="121.6231810">
        <ele>199.6810000</ele>
        <time>2011-03-20T07:54:52Z</time>
      </trkpt>
      <trkpt lat="25.0167520" lon="121.6234480">
        <ele>197.7890000</ele>
        <time>2011-03-20T07:54:55Z</time>
      </trkpt>
      <trkpt lat="25.0167800" lon="121.6237780">
        <ele>195.4560000</ele>
        <time>2011-03-20T07:54:58Z</time>
      </trkpt>
      <trkpt lat="25.0168920" lon="121.6242250">
        <ele>191.8540000</ele>
        <time>2011-03-20T07:55:02Z</time>
      </trkpt>
      <trkpt lat="25.0169210" lon="121.6247050">
        <ele>188.5430000</ele>
        <time>2011-03-20T07:55:06Z</time>
      </trkpt>
      <trkpt lat="25.0167810" lon="121.6250420">
        <ele>187.6770000</ele>
        <time>2011-03-20T07:55:09Z</time>
      </trkpt>
      <trkpt lat="25.0165650" lon="121.6254560">
        <ele>185.6340000</ele>
        <time>2011-03-20T07:55:13Z</time>
      </trkpt>
      <trkpt lat="25.0161260" lon="121.6262570">
        <ele>176.0600000</ele>
        <time>2011-03-20T07:55:21Z</time>
      </trkpt>
      <trkpt lat="25.0159880" lon="121.6264750">
        <ele>173.5920000</ele>
        <time>2011-03-20T07:55:24Z</time>
      </trkpt>
      <trkpt lat="25.0159580" lon="121.6267170">
        <ele>171.4950000</ele>
        <time>2011-03-20T07:55:27Z</time>
      </trkpt>
      <trkpt lat="25.0158630" lon="121.6265290">
        <ele>171.4950000</ele>
        <time>2011-03-20T07:55:28Z</time>
      </trkpt>
      <trkpt lat="25.0157440" lon="121.6264920">
        <ele>170.0550000</ele>
        <time>2011-03-20T07:55:29Z</time>
      </trkpt>
      <trkpt lat="25.0156400" lon="121.6263760">
        <ele>169.6770000</ele>
        <time>2011-03-20T07:55:30Z</time>
      </trkpt>
      <trkpt lat="25.0156330" lon="121.6262310">
        <ele>169.6770000</ele>
        <time>2011-03-20T07:55:31Z</time>
      </trkpt>
      <trkpt lat="25.0156800" lon="121.6259100">
        <ele>168.2670000</ele>
        <time>2011-03-20T07:55:34Z</time>
      </trkpt>
      <trkpt lat="25.0157460" lon="121.6254890">
        <ele>166.2140000</ele>
        <time>2011-03-20T07:55:38Z</time>
      </trkpt>
      <trkpt lat="25.0157960" lon="121.6251690">
        <ele>165.0920000</ele>
        <time>2011-03-20T07:55:41Z</time>
      </trkpt>
      <trkpt lat="25.0158060" lon="121.6248800">
        <ele>164.0500000</ele>
        <time>2011-03-20T07:55:44Z</time>
      </trkpt>
      <trkpt lat="25.0157010" lon="121.6247200">
        <ele>162.7780000</ele>
        <time>2011-03-20T07:55:46Z</time>
      </trkpt>
      <trkpt lat="25.0155220" lon="121.6246210">
        <ele>161.5720000</ele>
        <time>2011-03-20T07:55:48Z</time>
      </trkpt>
      <trkpt lat="25.0153020" lon="121.6246290">
        <ele>160.3150000</ele>
        <time>2011-03-20T07:55:50Z</time>
      </trkpt>
      <trkpt lat="25.0151200" lon="121.6247720">
        <ele>159.2550000</ele>
        <time>2011-03-20T07:55:52Z</time>
      </trkpt>
      <trkpt lat="25.0150200" lon="121.6250300">
        <ele>157.3390000</ele>
        <time>2011-03-20T07:55:54Z</time>
      </trkpt>
      <trkpt lat="25.0150140" lon="121.6251600">
        <ele>156.8250000</ele>
        <time>2011-03-20T07:55:55Z</time>
      </trkpt>
      <trkpt lat="25.0150410" lon="121.6255250">
        <ele>154.6320000</ele>
        <time>2011-03-20T07:55:58Z</time>
      </trkpt>
      <trkpt lat="25.0150160" lon="121.6258240">
        <ele>151.8960000</ele>
        <time>2011-03-20T07:56:01Z</time>
      </trkpt>
      <trkpt lat="25.0149570" lon="121.6259120">
        <ele>150.7160000</ele>
        <time>2011-03-20T07:56:03Z</time>
      </trkpt>
      <trkpt lat="25.0146890" lon="121.6260140">
        <ele>148.7670000</ele>
        <time>2011-03-20T07:56:05Z</time>
      </trkpt>
      <trkpt lat="25.0144830" lon="121.6259080">
        <ele>147.8510000</ele>
        <time>2011-03-20T07:56:07Z</time>
      </trkpt>
      <trkpt lat="25.0144140" lon="121.6256700">
        <ele>146.2650000</ele>
        <time>2011-03-20T07:56:09Z</time>
      </trkpt>
      <trkpt lat="25.0144250" lon="121.6255560">
        <ele>146.0120000</ele>
        <time>2011-03-20T07:56:10Z</time>
      </trkpt>
      <trkpt lat="25.0144430" lon="121.6254390">
        <ele>145.8170000</ele>
        <time>2011-03-20T07:56:11Z</time>
      </trkpt>
      <trkpt lat="25.0147120" lon="121.6245460">
        <ele>141.3200000</ele>
        <time>2011-03-20T07:56:19Z</time>
      </trkpt>
      <trkpt lat="25.0148480" lon="121.6240810">
        <ele>138.7470000</ele>
        <time>2011-03-20T07:56:23Z</time>
      </trkpt>
      <trkpt lat="25.0148820" lon="121.6236100">
        <ele>137.0250000</ele>
        <time>2011-03-20T07:56:27Z</time>
      </trkpt>
      <trkpt lat="25.0147320" lon="121.6233100">
        <ele>136.6680000</ele>
        <time>2011-03-20T07:56:30Z</time>
      </trkpt>
      <trkpt lat="25.0145180" lon="121.6231050">
        <ele>135.4600000</ele>
        <time>2011-03-20T07:56:33Z</time>
      </trkpt>
      <trkpt lat="25.0142510" lon="121.6229320">
        <ele>133.6980000</ele>
        <time>2011-03-20T07:56:36Z</time>
      </trkpt>
      <trkpt lat="25.0136820" lon="121.6225470">
        <ele>128.4880000</ele>
        <time>2011-03-20T07:56:42Z</time>
      </trkpt>
      <trkpt lat="25.0135810" lon="121.6224800">
        <ele>127.4840000</ele>
        <time>2011-03-20T07:56:43Z</time>
      </trkpt>
      <trkpt lat="25.0131510" lon="121.6223020">
        <ele>124.6180000</ele>
        <time>2011-03-20T07:56:47Z</time>
      </trkpt>
      <trkpt lat="25.0127720" lon="121.6223020">
        <ele>121.0390000</ele>
        <time>2011-03-20T07:56:50Z</time>
      </trkpt>
      <trkpt lat="25.0123830" lon="121.6222660">
        <ele>118.1640000</ele>
        <time>2011-03-20T07:56:53Z</time>
      </trkpt>
      <trkpt lat="25.0121550" lon="121.6220680">
        <ele>115.5710000</ele>
        <time>2011-03-20T07:56:55Z</time>
      </trkpt>
      <trkpt lat="25.0120070" lon="121.6218180">
        <ele>114.7720000</ele>
        <time>2011-03-20T07:56:57Z</time>
      </trkpt>
      <trkpt lat="25.0116770" lon="121.6213840">
        <ele>111.0350000</ele>
        <time>2011-03-20T07:57:01Z</time>
      </trkpt>
      <trkpt lat="25.0113100" lon="121.6212370">
        <ele>106.4600000</ele>
        <time>2011-03-20T07:57:04Z</time>
      </trkpt>
      <trkpt lat="25.0110360" lon="121.6212290">
        <ele>104.3410000</ele>
        <time>2011-03-20T07:57:06Z</time>
      </trkpt>
      <trkpt lat="25.0101200" lon="121.6213650">
        <ele>95.9080000</ele>
        <time>2011-03-20T07:57:13Z</time>
      </trkpt>
      <trkpt lat="25.0099970" lon="121.6213860">
        <ele>95.9080000</ele>
        <time>2011-03-20T07:57:14Z</time>
      </trkpt>
      <trkpt lat="25.0096510" lon="121.6214220">
        <ele>91.4890000</ele>
        <time>2011-03-20T07:57:17Z</time>
      </trkpt>
      <trkpt lat="25.0094670" lon="121.6213060">
        <ele>89.9400000</ele>
        <time>2011-03-20T07:57:19Z</time>
      </trkpt>
      <trkpt lat="25.0093980" lon="121.6210920">
        <ele>88.0430000</ele>
        <time>2011-03-20T07:57:21Z</time>
      </trkpt>
      <trkpt lat="25.0094440" lon="121.6208790">
        <ele>86.9970000</ele>
        <time>2011-03-20T07:57:23Z</time>
      </trkpt>
      <trkpt lat="25.0095560" lon="121.6205710">
        <ele>84.5960000</ele>
        <time>2011-03-20T07:57:26Z</time>
      </trkpt>
      <trkpt lat="25.0097360" lon="121.6200200">
        <ele>81.3020000</ele>
        <time>2011-03-20T07:57:31Z</time>
      </trkpt>
      <trkpt lat="25.0097640" lon="121.6196600">
        <ele>80.5950000</ele>
        <time>2011-03-20T07:57:34Z</time>
      </trkpt>
      <trkpt lat="25.0096920" lon="121.6195260">
        <ele>79.5710000</ele>
        <time>2011-03-20T07:57:36Z</time>
      </trkpt>
      <trkpt lat="25.0095340" lon="121.6194360">
        <ele>78.7150000</ele>
        <time>2011-03-20T07:57:38Z</time>
      </trkpt>
      <trkpt lat="25.0092660" lon="121.6194670">
        <ele>77.6130000</ele>
        <time>2011-03-20T07:57:41Z</time>
      </trkpt>
      <trkpt lat="25.0091460" lon="121.6196200">
        <ele>77.4270000</ele>
        <time>2011-03-20T07:57:43Z</time>
      </trkpt>
      <trkpt lat="25.0087700" lon="121.6201980">
        <ele>70.5960000</ele>
        <time>2011-03-20T07:57:49Z</time>
      </trkpt>
      <trkpt lat="25.0082670" lon="121.6209700">
        <ele>63.1760000</ele>
        <time>2011-03-20T07:57:56Z</time>
      </trkpt>
      <trkpt lat="25.0081010" lon="121.6211650">
        <ele>62.1500000</ele>
        <time>2011-03-20T07:57:58Z</time>
      </trkpt>
      <trkpt lat="25.0076410" lon="121.6215880">
        <ele>61.1140000</ele>
        <time>2011-03-20T07:58:03Z</time>
      </trkpt>
      <trkpt lat="25.0071310" lon="121.6220340">
        <ele>59.7860000</ele>
        <time>2011-03-20T07:58:09Z</time>
      </trkpt>
      <trkpt lat="25.0067570" lon="121.6223600">
        <ele>57.3560000</ele>
        <time>2011-03-20T07:58:14Z</time>
      </trkpt>
      <trkpt lat="25.0065780" lon="121.6225160">
        <ele>55.0420000</ele>
        <time>2011-03-20T07:58:18Z</time>
      </trkpt>
      <trkpt lat="25.0061510" lon="121.6225240">
        <ele>52.7970000</ele>
        <time>2011-03-20T07:58:21Z</time>
      </trkpt>
      <trkpt lat="25.0060460" lon="121.6225080">
        <ele>51.7670000</ele>
        <time>2011-03-20T07:58:22Z</time>
      </trkpt>
      <trkpt lat="25.0053390" lon="121.6221540">
        <ele>45.6130000</ele>
        <time>2011-03-20T07:58:29Z</time>
      </trkpt>
      <trkpt lat="25.0051400" lon="121.6220630">
        <ele>44.6170000</ele>
        <time>2011-03-20T07:58:31Z</time>
      </trkpt>
      <trkpt lat="25.0049320" lon="121.6220510">
        <ele>44.2940000</ele>
        <time>2011-03-20T07:58:34Z</time>
      </trkpt>
      <trkpt lat="25.0048440" lon="121.6220620">
        <ele>44.3460000</ele>
        <time>2011-03-20T07:58:36Z</time>
      </trkpt>
      <trkpt lat="25.0047060" lon="121.6217890">
        <ele>44.4140000</ele>
        <time>2011-03-20T07:58:41Z</time>
      </trkpt>
      <trkpt lat="25.0046590" lon="121.6216730">
        <ele>44.5070000</ele>
        <time>2011-03-20T07:58:44Z</time>
      </trkpt>
      <trkpt lat="25.0045830" lon="121.6214860">
        <ele>44.1290000</ele>
        <time>2011-03-20T07:58:51Z</time>
      </trkpt>
      <trkpt lat="25.0044540" lon="121.6209110">
        <ele>43.4680000</ele>
        <time>2011-03-20T07:58:57Z</time>
      </trkpt>
      <trkpt lat="25.0044630" lon="121.6205680">
        <ele>43.1320000</ele>
        <time>2011-03-20T07:59:02Z</time>
      </trkpt>
      <trkpt lat="25.0044860" lon="121.6203540">
        <ele>43.1960000</ele>
        <time>2011-03-20T07:59:05Z</time>
      </trkpt>
      <trkpt lat="25.0045180" lon="121.6200270">
        <ele>42.7630000</ele>
        <time>2011-03-20T07:59:10Z</time>
      </trkpt>
      <trkpt lat="25.0043560" lon="121.6196090">
        <ele>42.7740000</ele>
        <time>2011-03-20T07:59:16Z</time>
      </trkpt>
      <trkpt lat="25.0041470" lon="121.6191000">
        <ele>42.6200000</ele>
        <time>2011-03-20T07:59:24Z</time>
      </trkpt>
      <trkpt lat="25.0038990" lon="121.6185030">
        <ele>42.7060000</ele>
        <time>2011-03-20T07:59:33Z</time>
      </trkpt>
      <trkpt lat="25.0036810" lon="121.6179310">
        <ele>41.6010000</ele>
        <time>2011-03-20T07:59:42Z</time>
      </trkpt>
      <trkpt lat="25.0034580" lon="121.6173930">
        <ele>40.9980000</ele>
        <time>2011-03-20T07:59:50Z</time>
      </trkpt>
      <trkpt lat="25.0032930" lon="121.6169580">
        <ele>40.4750000</ele>
        <time>2011-03-20T07:59:57Z</time>
      </trkpt>
      <trkpt lat="25.0032170" lon="121.6167560">
        <ele>39.9270000</ele>
        <time>2011-03-20T08:00:03Z</time>
      </trkpt>
      <trkpt lat="25.0031230" lon="121.6165230">
        <ele>39.8690000</ele>
        <time>2011-03-20T08:00:08Z</time>
      </trkpt>
      <trkpt lat="25.0030980" lon="121.6164600">
        <ele>39.7740000</ele>
        <time>2011-03-20T08:00:09Z</time>
      </trkpt>
      <trkpt lat="25.0029480" lon="121.6160970">
        <ele>40.3490000</ele>
        <time>2011-03-20T08:00:14Z</time>
      </trkpt>
      <trkpt lat="25.0026720" lon="121.6153670">
        <ele>40.8960000</ele>
        <time>2011-03-20T08:00:23Z</time>
      </trkpt>
      <trkpt lat="25.0024770" lon="121.6147950">
        <ele>42.1840000</ele>
        <time>2011-03-20T08:00:31Z</time>
      </trkpt>
      <trkpt lat="25.0023140" lon="121.6143190">
        <ele>41.4730000</ele>
        <time>2011-03-20T08:00:38Z</time>
      </trkpt>
      <trkpt lat="25.0021310" lon="121.6138580">
        <ele>39.5670000</ele>
        <time>2011-03-20T08:00:44Z</time>
      </trkpt>
      <trkpt lat="25.0019520" lon="121.6135550">
        <ele>38.2270000</ele>
        <time>2011-03-20T08:00:48Z</time>
      </trkpt>
      <trkpt lat="25.0017270" lon="121.6132340">
        <ele>37.4470000</ele>
        <time>2011-03-20T08:00:53Z</time>
      </trkpt>
      <trkpt lat="25.0016550" lon="121.6131290">
        <ele>37.3890000</ele>
        <time>2011-03-20T08:00:56Z</time>
      </trkpt>
      <trkpt lat="25.0015240" lon="121.6129390">
        <ele>36.7130000</ele>
        <time>2011-03-20T08:01:01Z</time>
      </trkpt>
      <trkpt lat="25.0014640" lon="121.6128460">
        <ele>36.1790000</ele>
        <time>2011-03-20T08:01:04Z</time>
      </trkpt>
      <trkpt lat="25.0014500" lon="121.6128240">
        <ele>36.2940000</ele>
        <time>2011-03-20T08:01:08Z</time>
      </trkpt>
      <trkpt lat="25.0015230" lon="121.6129180">
        <ele>36.1480000</ele>
        <time>2011-03-20T08:01:12Z</time>
      </trkpt>
      <trkpt lat="25.0014100" lon="121.6127620">
        <ele>36.0310000</ele>
        <time>2011-03-20T08:01:14Z</time>
      </trkpt>
      <trkpt lat="25.0013420" lon="121.6126560">
        <ele>35.9270000</ele>
        <time>2011-03-20T08:01:17Z</time>
      </trkpt>
      <trkpt lat="25.0012930" lon="121.6125410">
        <ele>35.9380000</ele>
        <time>2011-03-20T08:01:19Z</time>
      </trkpt>
      <trkpt lat="25.0012780" lon="121.6124950">
        <ele>35.6770000</ele>
        <time>2011-03-20T08:01:24Z</time>
      </trkpt>
      <trkpt lat="25.0012320" lon="121.6121230">
        <ele>35.9100000</ele>
        <time>2011-03-20T08:01:26Z</time>
      </trkpt>
      <trkpt lat="25.0012190" lon="121.6116700">
        <ele>35.3340000</ele>
        <time>2011-03-20T08:01:33Z</time>
      </trkpt>
      <trkpt lat="25.0012170" lon="121.6116070">
        <ele>35.5640000</ele>
        <time>2011-03-20T08:01:34Z</time>
      </trkpt>
      <trkpt lat="25.0011950" lon="121.6113600">
        <ele>35.5530000</ele>
        <time>2011-03-20T08:01:38Z</time>
      </trkpt>
      <trkpt lat="25.0010670" lon="121.6108460">
        <ele>35.1460000</ele>
        <time>2011-03-20T08:01:46Z</time>
      </trkpt>
      <trkpt lat="25.0010030" lon="121.6104180">
        <ele>34.6150000</ele>
        <time>2011-03-20T08:01:52Z</time>
      </trkpt>
      <trkpt lat="25.0010180" lon="121.6099710">
        <ele>34.8940000</ele>
        <time>2011-03-20T08:01:58Z</time>
      </trkpt>
      <trkpt lat="25.0010750" lon="121.6095030">
        <ele>33.9800000</ele>
        <time>2011-03-20T08:02:04Z</time>
      </trkpt>
      <trkpt lat="25.0011730" lon="121.6089110">
        <ele>33.7940000</ele>
        <time>2011-03-20T08:02:12Z</time>
      </trkpt>
      <trkpt lat="25.0012810" lon="121.6083130">
        <ele>33.7280000</ele>
        <time>2011-03-20T08:02:21Z</time>
      </trkpt>
      <trkpt lat="25.0013480" lon="121.6079420">
        <ele>33.4850000</ele>
        <time>2011-03-20T08:02:26Z</time>
      </trkpt>
      <trkpt lat="25.0014580" lon="121.6073570">
        <ele>33.4240000</ele>
        <time>2011-03-20T08:02:34Z</time>
      </trkpt>
      <trkpt lat="25.0015550" lon="121.6068520">
        <ele>32.9190000</ele>
        <time>2011-03-20T08:02:41Z</time>
      </trkpt>
      <trkpt lat="25.0016840" lon="121.6061590">
        <ele>32.5570000</ele>
        <time>2011-03-20T08:02:50Z</time>
      </trkpt>
      <trkpt lat="25.0018020" lon="121.6056470">
        <ele>32.6370000</ele>
        <time>2011-03-20T08:02:57Z</time>
      </trkpt>
      <trkpt lat="25.0019430" lon="121.6052270">
        <ele>32.9780000</ele>
        <time>2011-03-20T08:03:03Z</time>
      </trkpt>
      <trkpt lat="25.0021550" lon="121.6047710">
        <ele>33.2370000</ele>
        <time>2011-03-20T08:03:10Z</time>
      </trkpt>
      <trkpt lat="25.0022760" lon="121.6045230">
        <ele>33.8950000</ele>
        <time>2011-03-20T08:03:14Z</time>
      </trkpt>
      <trkpt lat="25.0024230" lon="121.6042230">
        <ele>34.2860000</ele>
        <time>2011-03-20T08:03:19Z</time>
      </trkpt>
      <trkpt lat="25.0027290" lon="121.6036910">
        <ele>33.6720000</ele>
        <time>2011-03-20T08:03:28Z</time>
      </trkpt>
      <trkpt lat="25.0030250" lon="121.6031610">
        <ele>33.0600000</ele>
        <time>2011-03-20T08:03:36Z</time>
      </trkpt>
      <trkpt lat="25.0032560" lon="121.6027340">
        <ele>31.5310000</ele>
        <time>2011-03-20T08:03:42Z</time>
      </trkpt>
      <trkpt lat="25.0034180" lon="121.6022300">
        <ele>29.7330000</ele>
        <time>2011-03-20T08:03:49Z</time>
      </trkpt>
      <trkpt lat="25.0035380" lon="121.6018620">
        <ele>29.5710000</ele>
        <time>2011-03-20T08:03:54Z</time>
      </trkpt>
      <trkpt lat="25.0036300" lon="121.6015850">
        <ele>29.0150000</ele>
        <time>2011-03-20T08:03:59Z</time>
      </trkpt>
      <trkpt lat="25.0036510" lon="121.6015140">
        <ele>28.9600000</ele>
        <time>2011-03-20T08:04:00Z</time>
      </trkpt>
      <trkpt lat="25.0037650" lon="121.6011370">
        <ele>28.7870000</ele>
        <time>2011-03-20T08:04:06Z</time>
      </trkpt>
      <trkpt lat="25.0038460" lon="121.6008720">
        <ele>28.7480000</ele>
        <time>2011-03-20T08:04:10Z</time>
      </trkpt>
      <trkpt lat="25.0039810" lon="121.6004420">
        <ele>28.7610000</ele>
        <time>2011-03-20T08:04:16Z</time>
      </trkpt>
      <trkpt lat="25.0040380" lon="121.6002780">
        <ele>28.4700000</ele>
        <time>2011-03-20T08:04:19Z</time>
      </trkpt>
      <trkpt lat="25.0041250" lon="121.6000290">
        <ele>28.5570000</ele>
        <time>2011-03-20T08:04:23Z</time>
      </trkpt>
      <trkpt lat="25.0042050" lon="121.5997990">
        <ele>28.2440000</ele>
        <time>2011-03-20T08:04:27Z</time>
      </trkpt>
      <trkpt lat="25.0042450" lon="121.5996850">
        <ele>28.5560000</ele>
        <time>2011-03-20T08:04:29Z</time>
      </trkpt>
      <trkpt lat="25.0042920" lon="121.5995480">
        <ele>28.1740000</ele>
        <time>2011-03-20T08:04:31Z</time>
      </trkpt>
      <trkpt lat="25.0044260" lon="121.5991400">
        <ele>28.0220000</ele>
        <time>2011-03-20T08:04:36Z</time>
      </trkpt>
      <trkpt lat="25.0045530" lon="121.5987540">
        <ele>28.0560000</ele>
        <time>2011-03-20T08:04:42Z</time>
      </trkpt>
      <trkpt lat="25.0047100" lon="121.5982730">
        <ele>28.4530000</ele>
        <time>2011-03-20T08:04:48Z</time>
      </trkpt>
      <trkpt lat="25.0047620" lon="121.5981160">
        <ele>28.5290000</ele>
        <time>2011-03-20T08:04:52Z</time>
      </trkpt>
      <trkpt lat="25.0049400" lon="121.5975710">
        <ele>28.7600000</ele>
        <time>2011-03-20T08:04:59Z</time>
      </trkpt>
      <trkpt lat="25.0050710" lon="121.5971720">
        <ele>28.9700000</ele>
        <time>2011-03-20T08:05:05Z</time>
      </trkpt>
      <trkpt lat="25.0051370" lon="121.5969710">
        <ele>29.1100000</ele>
        <time>2011-03-20T08:05:08Z</time>
      </trkpt>
      <trkpt lat="25.0051620" lon="121.5968700">
        <ele>29.2920000</ele>
        <time>2011-03-20T08:05:10Z</time>
      </trkpt>
      <trkpt lat="25.0051290" lon="121.5965730">
        <ele>29.1810000</ele>
        <time>2011-03-20T08:05:15Z</time>
      </trkpt>
      <trkpt lat="25.0050290" lon="121.5964100">
        <ele>29.1450000</ele>
        <time>2011-03-20T08:05:18Z</time>
      </trkpt>
      <trkpt lat="25.0047070" lon="121.5962220">
        <ele>29.4640000</ele>
        <time>2011-03-20T08:05:24Z</time>
      </trkpt>
      <trkpt lat="25.0045140" lon="121.5961510">
        <ele>29.7340000</ele>
        <time>2011-03-20T08:05:27Z</time>
      </trkpt>
      <trkpt lat="25.0043440" lon="121.5960940">
        <ele>29.7420000</ele>
        <time>2011-03-20T08:05:31Z</time>
      </trkpt>
      <trkpt lat="25.0044130" lon="121.5958610">
        <ele>29.7650000</ele>
        <time>2011-03-20T08:05:35Z</time>
      </trkpt>
      <trkpt lat="25.0045130" lon="121.5956140">
        <ele>30.1070000</ele>
        <time>2011-03-20T08:05:40Z</time>
      </trkpt>
      <trkpt lat="25.0046430" lon="121.5954970">
        <ele>31.2870000</ele>
        <time>2011-03-20T08:05:45Z</time>
      </trkpt>
      <trkpt lat="25.0046910" lon="121.5954770">
        <ele>31.2220000</ele>
        <time>2011-03-20T08:05:47Z</time>
      </trkpt>
      <trkpt lat="25.0048420" lon="121.5954600">
        <ele>32.1880000</ele>
        <time>2011-03-20T08:05:53Z</time>
      </trkpt>
      <trkpt lat="25.0050430" lon="121.5954970">
        <ele>33.6960000</ele>
        <time>2011-03-20T08:06:00Z</time>
      </trkpt>
      <trkpt lat="25.0051980" lon="121.5955310">
        <ele>34.8440000</ele>
        <time>2011-03-20T08:06:06Z</time>
      </trkpt>
      <trkpt lat="25.0053920" lon="121.5955770">
        <ele>36.1900000</ele>
        <time>2011-03-20T08:06:13Z</time>
      </trkpt>
      <trkpt lat="25.0055620" lon="121.5956130">
        <ele>37.3850000</ele>
        <time>2011-03-20T08:06:19Z</time>
      </trkpt>
      <trkpt lat="25.0057370" lon="121.5956220">
        <ele>38.5560000</ele>
        <time>2011-03-20T08:06:25Z</time>
      </trkpt>
      <trkpt lat="25.0058920" lon="121.5955970">
        <ele>39.0420000</ele>
        <time>2011-03-20T08:06:30Z</time>
      </trkpt>
      <trkpt lat="25.0060880" lon="121.5954720">
        <ele>40.2100000</ele>
        <time>2011-03-20T08:06:37Z</time>
      </trkpt>
      <trkpt lat="25.0062560" lon="121.5953380">
        <ele>40.8840000</ele>
        <time>2011-03-20T08:06:44Z</time>
      </trkpt>
      <trkpt lat="25.0063660" lon="121.5952370">
        <ele>42.0150000</ele>
        <time>2011-03-20T08:06:50Z</time>
      </trkpt>
      <trkpt lat="25.0063740" lon="121.5951100">
        <ele>42.6420000</ele>
        <time>2011-03-20T08:06:56Z</time>
      </trkpt>
      <trkpt lat="25.0063350" lon="121.5949780">
        <ele>43.6670000</ele>
        <time>2011-03-20T08:07:03Z</time>
      </trkpt>
      <trkpt lat="25.0062060" lon="121.5948500">
        <ele>44.0640000</ele>
        <time>2011-03-20T08:07:11Z</time>
      </trkpt>
      <trkpt lat="25.0060850" lon="121.5947110">
        <ele>45.0470000</ele>
        <time>2011-03-20T08:07:18Z</time>
      </trkpt>
      <trkpt lat="25.0060980" lon="121.5945860">
        <ele>45.8840000</ele>
        <time>2011-03-20T08:07:23Z</time>
      </trkpt>
      <trkpt lat="25.0061400" lon="121.5943980">
        <ele>47.1100000</ele>
        <time>2011-03-20T08:07:30Z</time>
      </trkpt>
      <trkpt lat="25.0061860" lon="121.5941990">
        <ele>48.9050000</ele>
        <time>2011-03-20T08:07:38Z</time>
      </trkpt>
      <trkpt lat="25.0062360" lon="121.5940440">
        <ele>50.6330000</ele>
        <time>2011-03-20T08:07:45Z</time>
      </trkpt>
      <trkpt lat="25.0062880" lon="121.5938960">
        <ele>52.1300000</ele>
        <time>2011-03-20T08:07:52Z</time>
      </trkpt>
      <trkpt lat="25.0063420" lon="121.5937420">
        <ele>53.2950000</ele>
        <time>2011-03-20T08:07:59Z</time>
      </trkpt>
      <trkpt lat="25.0063390" lon="121.5935850">
        <ele>54.4040000</ele>
        <time>2011-03-20T08:08:05Z</time>
      </trkpt>
      <trkpt lat="25.0062770" lon="121.5935050">
        <ele>54.9900000</ele>
        <time>2011-03-20T08:08:09Z</time>
      </trkpt>
      <trkpt lat="25.0061490" lon="121.5934680">
        <ele>55.6950000</ele>
        <time>2011-03-20T08:08:14Z</time>
      </trkpt>
      <trkpt lat="25.0060020" lon="121.5934330">
        <ele>57.2070000</ele>
        <time>2011-03-20T08:08:21Z</time>
      </trkpt>
      <trkpt lat="25.0058740" lon="121.5934020">
        <ele>58.4670000</ele>
        <time>2011-03-20T08:08:27Z</time>
      </trkpt>
      <trkpt lat="25.0057250" lon="121.5933660">
        <ele>59.5900000</ele>
        <time>2011-03-20T08:08:34Z</time>
      </trkpt>
      <trkpt lat="25.0056210" lon="121.5932860">
        <ele>60.8300000</ele>
        <time>2011-03-20T08:08:40Z</time>
      </trkpt>
      <trkpt lat="25.0056130" lon="121.5931490">
        <ele>61.8770000</ele>
        <time>2011-03-20T08:08:45Z</time>
      </trkpt>
      <trkpt lat="25.0056380" lon="121.5929340">
        <ele>63.2120000</ele>
        <time>2011-03-20T08:08:53Z</time>
      </trkpt>
      <trkpt lat="25.0056600" lon="121.5927740">
        <ele>64.9810000</ele>
        <time>2011-03-20T08:09:00Z</time>
      </trkpt>
      <trkpt lat="25.0056760" lon="121.5926620">
        <ele>65.9190000</ele>
        <time>2011-03-20T08:09:05Z</time>
      </trkpt>
      <trkpt lat="25.0056860" lon="121.5925910">
        <ele>66.4580000</ele>
        <time>2011-03-20T08:09:08Z</time>
      </trkpt>
      <trkpt lat="25.0057120" lon="121.5924020">
        <ele>68.0860000</ele>
        <time>2011-03-20T08:09:16Z</time>
      </trkpt>
      <trkpt lat="25.0057390" lon="121.5922000">
        <ele>69.5690000</ele>
        <time>2011-03-20T08:09:24Z</time>
      </trkpt>
      <trkpt lat="25.0057770" lon="121.5919300">
        <ele>71.6950000</ele>
        <time>2011-03-20T08:09:34Z</time>
      </trkpt>
      <trkpt lat="25.0058310" lon="121.5917050">
        <ele>73.1840000</ele>
        <time>2011-03-20T08:09:42Z</time>
      </trkpt>
      <trkpt lat="25.0058970" lon="121.5915630">
        <ele>74.6430000</ele>
        <time>2011-03-20T08:09:48Z</time>
      </trkpt>
      <trkpt lat="25.0059820" lon="121.5914310">
        <ele>75.6410000</ele>
        <time>2011-03-20T08:09:55Z</time>
      </trkpt>
      <trkpt lat="25.0060500" lon="121.5913260">
        <ele>76.7230000</ele>
        <time>2011-03-20T08:10:00Z</time>
      </trkpt>
      <trkpt lat="25.0060990" lon="121.5912490">
        <ele>77.5230000</ele>
        <time>2011-03-20T08:10:04Z</time>
      </trkpt>
      <trkpt lat="25.0061320" lon="121.5911980">
        <ele>77.9530000</ele>
        <time>2011-03-20T08:10:07Z</time>
      </trkpt>
      <trkpt lat="25.0062050" lon="121.5910840">
        <ele>78.8670000</ele>
        <time>2011-03-20T08:10:13Z</time>
      </trkpt>
      <trkpt lat="25.0062790" lon="121.5910040">
        <ele>79.6400000</ele>
        <time>2011-03-20T08:10:18Z</time>
      </trkpt>
      <trkpt lat="25.0063160" lon="121.5909770">
        <ele>79.9180000</ele>
        <time>2011-03-20T08:10:20Z</time>
      </trkpt>
      <trkpt lat="25.0064090" lon="121.5909070">
        <ele>80.8250000</ele>
        <time>2011-03-20T08:10:25Z</time>
      </trkpt>
      <trkpt lat="25.0065070" lon="121.5908340">
        <ele>82.1120000</ele>
        <time>2011-03-20T08:10:31Z</time>
      </trkpt>
      <trkpt lat="25.0065620" lon="121.5907920">
        <ele>82.8060000</ele>
        <time>2011-03-20T08:10:35Z</time>
      </trkpt>
      <trkpt lat="25.0065870" lon="121.5907710">
        <ele>83.0770000</ele>
        <time>2011-03-20T08:10:37Z</time>
      </trkpt>
      <trkpt lat="25.0066310" lon="121.5907180">
        <ele>84.3190000</ele>
        <time>2011-03-20T08:10:42Z</time>
      </trkpt>
      <trkpt lat="25.0066500" lon="121.5906810">
        <ele>85.0030000</ele>
        <time>2011-03-20T08:10:45Z</time>
      </trkpt>
      <trkpt lat="25.0066640" lon="121.5906520">
        <ele>85.5800000</ele>
        <time>2011-03-20T08:10:48Z</time>
      </trkpt>
      <trkpt lat="25.0066800" lon="121.5906050">
        <ele>86.5480000</ele>
        <time>2011-03-20T08:10:51Z</time>
      </trkpt>
      <trkpt lat="25.0066860" lon="121.5905870">
        <ele>87.1320000</ele>
        <time>2011-03-20T08:10:54Z</time>
      </trkpt>
      <trkpt lat="25.0066810" lon="121.5905130">
        <ele>88.3100000</ele>
        <time>2011-03-20T08:10:58Z</time>
      </trkpt>
      <trkpt lat="25.0070930" lon="121.5899000">
        <ele>89.2550000</ele>
        <time>2011-03-20T08:11:03Z</time>
      </trkpt>
      <trkpt lat="25.0070500" lon="121.5903940">
        <ele>90.4230000</ele>
        <time>2011-03-20T08:11:06Z</time>
      </trkpt>
      <trkpt lat="25.0066730" lon="121.5903610">
        <ele>91.1220000</ele>
        <time>2011-03-20T08:11:09Z</time>
      </trkpt>
      <trkpt lat="25.0070570" lon="121.5898640">
        <ele>91.8620000</ele>
        <time>2011-03-20T08:11:13Z</time>
      </trkpt>
      <trkpt lat="25.0066670" lon="121.5902570">
        <ele>92.8500000</ele>
        <time>2011-03-20T08:11:17Z</time>
      </trkpt>
      <trkpt lat="25.0070500" lon="121.5898580">
        <ele>93.5740000</ele>
        <time>2011-03-20T08:11:19Z</time>
      </trkpt>
      <trkpt lat="25.0066650" lon="121.5902170">
        <ele>93.9470000</ele>
        <time>2011-03-20T08:11:21Z</time>
      </trkpt>
      <trkpt lat="25.0066770" lon="121.5901390">
        <ele>95.5210000</ele>
        <time>2011-03-20T08:11:27Z</time>
      </trkpt>
      <trkpt lat="25.0066800" lon="121.5901220">
        <ele>95.7250000</ele>
        <time>2011-03-20T08:11:28Z</time>
      </trkpt>
      <trkpt lat="25.0066990" lon="121.5900540">
        <ele>97.1580000</ele>
        <time>2011-03-20T08:11:33Z</time>
      </trkpt>
      <trkpt lat="25.0067420" lon="121.5899850">
        <ele>98.9090000</ele>
        <time>2011-03-20T08:11:39Z</time>
      </trkpt>
      <trkpt lat="25.0067620" lon="121.5899610">
        <ele>99.6960000</ele>
        <time>2011-03-20T08:11:41Z</time>
      </trkpt>
      <trkpt lat="25.0070500" lon="121.5899430">
        <ele>100.2920000</ele>
        <time>2011-03-20T08:11:46Z</time>
      </trkpt>
      <trkpt lat="25.0068360" lon="121.5898830">
        <ele>101.6700000</ele>
        <time>2011-03-20T08:11:49Z</time>
      </trkpt>
      <trkpt lat="25.0068900" lon="121.5898340">
        <ele>102.1740000</ele>
        <time>2011-03-20T08:11:54Z</time>
      </trkpt>
      <trkpt lat="25.0069460" lon="121.5897840">
        <ele>102.9090000</ele>
        <time>2011-03-20T08:11:58Z</time>
      </trkpt>
      <trkpt lat="25.0070330" lon="121.5898070">
        <ele>102.7700000</ele>
        <time>2011-03-20T08:12:00Z</time>
      </trkpt>
      <trkpt lat="25.0071490" lon="121.5899240">
        <ele>102.7090000</ele>
        <time>2011-03-20T08:12:06Z</time>
      </trkpt>
      <trkpt lat="25.0073300" lon="121.5899810">
        <ele>101.9570000</ele>
        <time>2011-03-20T08:12:10Z</time>
      </trkpt>
      <trkpt lat="25.0077250" lon="121.5900220">
        <ele>103.2240000</ele>
        <time>2011-03-20T08:12:18Z</time>
      </trkpt>
      <trkpt lat="25.0078870" lon="121.5899860">
        <ele>104.3030000</ele>
        <time>2011-03-20T08:12:24Z</time>
      </trkpt>
      <trkpt lat="25.0079770" lon="121.5899460">
        <ele>105.3110000</ele>
        <time>2011-03-20T08:12:29Z</time>
      </trkpt>
      <trkpt lat="25.0080120" lon="121.5899310">
        <ele>106.5100000</ele>
        <time>2011-03-20T08:12:31Z</time>
      </trkpt>
      <trkpt lat="25.0081570" lon="121.5898540">
        <ele>106.9750000</ele>
        <time>2011-03-20T08:12:39Z</time>
      </trkpt>
      <trkpt lat="25.0081790" lon="121.5898410">
        <ele>107.1770000</ele>
        <time>2011-03-20T08:12:40Z</time>
      </trkpt>
      <trkpt lat="25.0082910" lon="121.5897740">
        <ele>107.9610000</ele>
        <time>2011-03-20T08:12:45Z</time>
      </trkpt>
      <trkpt lat="25.0083520" lon="121.5897260">
        <ele>108.3170000</ele>
        <time>2011-03-20T08:12:49Z</time>
      </trkpt>
      <trkpt lat="25.0084050" lon="121.5896780">
        <ele>108.9160000</ele>
        <time>2011-03-20T08:12:54Z</time>
      </trkpt>
      <trkpt lat="25.0084770" lon="121.5894390">
        <ele>110.3340000</ele>
        <time>2011-03-20T08:13:03Z</time>
      </trkpt>
      <trkpt lat="25.0085060" lon="121.5892180">
        <ele>111.0090000</ele>
        <time>2011-03-20T08:13:10Z</time>
      </trkpt>
      <trkpt lat="25.0086410" lon="121.5889320">
        <ele>112.5620000</ele>
        <time>2011-03-20T08:13:19Z</time>
      </trkpt>
      <trkpt lat="25.0087660" lon="121.5888070">
        <ele>113.7500000</ele>
        <time>2011-03-20T08:13:26Z</time>
      </trkpt>
      <trkpt lat="25.0089320" lon="121.5886640">
        <ele>114.9130000</ele>
        <time>2011-03-20T08:13:33Z</time>
      </trkpt>
      <trkpt lat="25.0091750" lon="121.5885640">
        <ele>115.7120000</ele>
        <time>2011-03-20T08:13:41Z</time>
      </trkpt>
      <trkpt lat="25.0093360" lon="121.5885380">
        <ele>116.4570000</ele>
        <time>2011-03-20T08:13:46Z</time>
      </trkpt>
      <trkpt lat="25.0095520" lon="121.5885450">
        <ele>116.6880000</ele>
        <time>2011-03-20T08:13:50Z</time>
      </trkpt>
      <trkpt lat="25.0099380" lon="121.5886580">
        <ele>117.9700000</ele>
        <time>2011-03-20T08:13:59Z</time>
      </trkpt>
      <trkpt lat="25.0102840" lon="121.5887710">
        <ele>120.0850000</ele>
        <time>2011-03-20T08:14:09Z</time>
      </trkpt>
      <trkpt lat="25.0105200" lon="121.5888290">
        <ele>121.5250000</ele>
        <time>2011-03-20T08:14:17Z</time>
      </trkpt>
      <trkpt lat="25.0107020" lon="121.5888490">
        <ele>122.4170000</ele>
        <time>2011-03-20T08:14:23Z</time>
      </trkpt>
      <trkpt lat="25.0109190" lon="121.5888400">
        <ele>123.6600000</ele>
        <time>2011-03-20T08:14:30Z</time>
      </trkpt>
      <trkpt lat="25.0111250" lon="121.5888320">
        <ele>124.8700000</ele>
        <time>2011-03-20T08:14:37Z</time>
      </trkpt>
      <trkpt lat="25.0112890" lon="121.5888460">
        <ele>125.5180000</ele>
        <time>2011-03-20T08:14:42Z</time>
      </trkpt>
      <trkpt lat="25.0114160" lon="121.5889650">
        <ele>126.3920000</ele>
        <time>2011-03-20T08:14:47Z</time>
      </trkpt>
      <trkpt lat="25.0114490" lon="121.5891300">
        <ele>127.2610000</ele>
        <time>2011-03-20T08:14:52Z</time>
      </trkpt>
      <trkpt lat="25.0114290" lon="121.5893160">
        <ele>127.6500000</ele>
        <time>2011-03-20T08:14:57Z</time>
      </trkpt>
      <trkpt lat="25.0113340" lon="121.5894120">
        <ele>128.0960000</ele>
        <time>2011-03-20T08:15:01Z</time>
      </trkpt>
      <trkpt lat="25.0111470" lon="121.5894140">
        <ele>129.5350000</ele>
        <time>2011-03-20T08:15:07Z</time>
      </trkpt>
      <trkpt lat="25.0108750" lon="121.5893760">
        <ele>130.8160000</ele>
        <time>2011-03-20T08:15:16Z</time>
      </trkpt>
      <trkpt lat="25.0106700" lon="121.5893760">
        <ele>131.9820000</ele>
        <time>2011-03-20T08:15:23Z</time>
      </trkpt>
      <trkpt lat="25.0105260" lon="121.5895200">
        <ele>132.6550000</ele>
        <time>2011-03-20T08:15:28Z</time>
      </trkpt>
      <trkpt lat="25.0105160" lon="121.5897290">
        <ele>133.3760000</ele>
        <time>2011-03-20T08:15:33Z</time>
      </trkpt>
      <trkpt lat="25.0106280" lon="121.5898330">
        <ele>134.3100000</ele>
        <time>2011-03-20T08:15:38Z</time>
      </trkpt>
      <trkpt lat="25.0106340" lon="121.5898360">
        <ele>134.6740000</ele>
        <time>2011-03-20T08:15:39Z</time>
      </trkpt>
      <trkpt lat="25.0107200" lon="121.5897930">
        <ele>135.2100000</ele>
        <time>2011-03-20T08:15:43Z</time>
      </trkpt>
      <trkpt lat="25.0109540" lon="121.5895720">
        <ele>136.0750000</ele>
        <time>2011-03-20T08:15:52Z</time>
      </trkpt>
      <trkpt lat="25.0110820" lon="121.5895560">
        <ele>136.7890000</ele>
        <time>2011-03-20T08:15:56Z</time>
      </trkpt>
      <trkpt lat="25.0112640" lon="121.5896090">
        <ele>138.2130000</ele>
        <time>2011-03-20T08:16:02Z</time>
      </trkpt>
      <trkpt lat="25.0114390" lon="121.5896510">
        <ele>140.0270000</ele>
        <time>2011-03-20T08:16:10Z</time>
      </trkpt>
      <trkpt lat="25.0114610" lon="121.5896540">
        <ele>140.2890000</ele>
        <time>2011-03-20T08:16:11Z</time>
      </trkpt>
      <trkpt lat="25.0115380" lon="121.5896640">
        <ele>140.7790000</ele>
        <time>2011-03-20T08:16:15Z</time>
      </trkpt>
      <trkpt lat="25.0116710" lon="121.5896450">
        <ele>142.3140000</ele>
        <time>2011-03-20T08:16:22Z</time>
      </trkpt>
      <trkpt lat="25.0118700" lon="121.5896060">
        <ele>143.9530000</ele>
        <time>2011-03-20T08:16:31Z</time>
      </trkpt>
      <trkpt lat="25.0120800" lon="121.5895640">
        <ele>144.6380000</ele>
        <time>2011-03-20T08:16:38Z</time>
      </trkpt>
      <trkpt lat="25.0123040" lon="121.5895190">
        <ele>145.5820000</ele>
        <time>2011-03-20T08:16:44Z</time>
      </trkpt>
      <trkpt lat="25.0123640" lon="121.5895070">
        <ele>145.4760000</ele>
        <time>2011-03-20T08:16:47Z</time>
      </trkpt>
      <trkpt lat="25.0124360" lon="121.5894930">
        <ele>145.3880000</ele>
        <time>2011-03-20T08:16:51Z</time>
      </trkpt>
      <trkpt lat="25.0124360" lon="121.5894930">
        <ele>145.4310000</ele>
        <time>2011-03-20T08:16:54Z</time>
      </trkpt>
      <trkpt lat="25.0123400" lon="121.5891250">
        <ele>145.2790000</ele>
        <time>2011-03-20T08:16:58Z</time>
      </trkpt>
      <trkpt lat="25.0122080" lon="121.5888400">
        <ele>145.7200000</ele>
        <time>2011-03-20T08:17:03Z</time>
      </trkpt>
      <trkpt lat="25.0121150" lon="121.5887690">
        <ele>146.1550000</ele>
        <time>2011-03-20T08:17:05Z</time>
      </trkpt>
      <trkpt lat="25.0116880" lon="121.5884490">
        <ele>146.4560000</ele>
        <time>2011-03-20T08:17:14Z</time>
      </trkpt>
      <trkpt lat="25.0116400" lon="121.5884130">
        <ele>146.5820000</ele>
        <time>2011-03-20T08:17:15Z</time>
      </trkpt>
      <trkpt lat="25.0114430" lon="121.5883220">
        <ele>147.2200000</ele>
        <time>2011-03-20T08:17:19Z</time>
      </trkpt>
      <trkpt lat="25.0113940" lon="121.5883320">
        <ele>147.7180000</ele>
        <time>2011-03-20T08:17:20Z</time>
      </trkpt>
      <trkpt lat="25.0111290" lon="121.5884620">
        <ele>149.0580000</ele>
        <time>2011-03-20T08:17:27Z</time>
      </trkpt>
      <trkpt lat="25.0110580" lon="121.5884630">
        <ele>149.2170000</ele>
        <time>2011-03-20T08:17:29Z</time>
      </trkpt>
      <trkpt lat="25.0108640" lon="121.5883930">
        <ele>150.0580000</ele>
        <time>2011-03-20T08:17:34Z</time>
      </trkpt>
      <trkpt lat="25.0108160" lon="121.5881970">
        <ele>150.2880000</ele>
        <time>2011-03-20T08:17:37Z</time>
      </trkpt>
      <trkpt lat="25.0108690" lon="121.5879460">
        <ele>151.2720000</ele>
        <time>2011-03-20T08:17:43Z</time>
      </trkpt>
      <trkpt lat="25.0109290" lon="121.5877530">
        <ele>152.8810000</ele>
        <time>2011-03-20T08:17:47Z</time>
      </trkpt>
      <trkpt lat="25.0109480" lon="121.5876920">
        <ele>153.2670000</ele>
        <time>2011-03-20T08:17:49Z</time>
      </trkpt>
      <trkpt lat="25.0109560" lon="121.5875820">
        <ele>154.4770000</ele>
        <time>2011-03-20T08:17:53Z</time>
      </trkpt>
      <trkpt lat="25.0109210" lon="121.5873700">
        <ele>156.1180000</ele>
        <time>2011-03-20T08:18:00Z</time>
      </trkpt>
      <trkpt lat="25.0109870" lon="121.5871920">
        <ele>157.2510000</ele>
        <time>2011-03-20T08:18:04Z</time>
      </trkpt>
      <trkpt lat="25.0111390" lon="121.5871540">
        <ele>157.7130000</ele>
        <time>2011-03-20T08:18:08Z</time>
      </trkpt>
      <trkpt lat="25.0112190" lon="121.5871540">
        <ele>158.0400000</ele>
        <time>2011-03-20T08:18:10Z</time>
      </trkpt>
      <trkpt lat="25.0114240" lon="121.5871540">
        <ele>158.3910000</ele>
        <time>2011-03-20T08:18:15Z</time>
      </trkpt>
      <trkpt lat="25.0116780" lon="121.5871540">
        <ele>160.1270000</ele>
        <time>2011-03-20T08:18:22Z</time>
      </trkpt>
      <trkpt lat="25.0119490" lon="121.5871540">
        <ele>160.7100000</ele>
        <time>2011-03-20T08:18:29Z</time>
      </trkpt>
      <trkpt lat="25.0121660" lon="121.5871440">
        <ele>161.1840000</ele>
        <time>2011-03-20T08:18:34Z</time>
      </trkpt>
      <trkpt lat="25.0123480" lon="121.5869860">
        <ele>161.6190000</ele>
        <time>2011-03-20T08:18:39Z</time>
      </trkpt>
      <trkpt lat="25.0123720" lon="121.5867840">
        <ele>161.8780000</ele>
        <time>2011-03-20T08:18:43Z</time>
      </trkpt>
      <trkpt lat="25.0124160" lon="121.5865190">
        <ele>162.8920000</ele>
        <time>2011-03-20T08:18:47Z</time>
      </trkpt>
      <trkpt lat="25.0125520" lon="121.5863150">
        <ele>163.7500000</ele>
        <time>2011-03-20T08:18:51Z</time>
      </trkpt>
      <trkpt lat="25.0125970" lon="121.5860990">
        <ele>163.7550000</ele>
        <time>2011-03-20T08:18:55Z</time>
      </trkpt>
      <trkpt lat="25.0125100" lon="121.5859610">
        <ele>163.8070000</ele>
        <time>2011-03-20T08:18:58Z</time>
      </trkpt>
      <trkpt lat="25.0122910" lon="121.5857100">
        <ele>164.5760000</ele>
        <time>2011-03-20T08:19:03Z</time>
      </trkpt>
      <trkpt lat="25.0123500" lon="121.5855100">
        <ele>165.4550000</ele>
        <time>2011-03-20T08:19:06Z</time>
      </trkpt>
      <trkpt lat="25.0123840" lon="121.5853220">
        <ele>164.8900000</ele>
        <time>2011-03-20T08:19:09Z</time>
      </trkpt>
      <trkpt lat="25.0123650" lon="121.5850080">
        <ele>164.3730000</ele>
        <time>2011-03-20T08:19:13Z</time>
      </trkpt>
      <trkpt lat="25.0123900" lon="121.5849310">
        <ele>164.4980000</ele>
        <time>2011-03-20T08:19:14Z</time>
      </trkpt>
      <trkpt lat="25.0125220" lon="121.5846430">
        <ele>163.0400000</ele>
        <time>2011-03-20T08:19:18Z</time>
      </trkpt>
      <trkpt lat="25.0124860" lon="121.5844980">
        <ele>163.1910000</ele>
        <time>2011-03-20T08:19:20Z</time>
      </trkpt>
      <trkpt lat="25.0123790" lon="121.5843420">
        <ele>163.5210000</ele>
        <time>2011-03-20T08:19:22Z</time>
      </trkpt>
      <trkpt lat="25.0123830" lon="121.5841390">
        <ele>163.3440000</ele>
        <time>2011-03-20T08:19:24Z</time>
      </trkpt>
      <trkpt lat="25.0124720" lon="121.5834980">
        <ele>163.4070000</ele>
        <time>2011-03-20T08:19:32Z</time>
      </trkpt>
      <trkpt lat="25.0124480" lon="121.5832030">
        <ele>163.6960000</ele>
        <time>2011-03-20T08:19:36Z</time>
      </trkpt>
      <trkpt lat="25.0122860" lon="121.5829910">
        <ele>164.0520000</ele>
        <time>2011-03-20T08:19:40Z</time>
      </trkpt>
      <trkpt lat="25.0120640" lon="121.5829610">
        <ele>165.1700000</ele>
        <time>2011-03-20T08:19:44Z</time>
      </trkpt>
      <trkpt lat="25.0118720" lon="121.5829820">
        <ele>165.5400000</ele>
        <time>2011-03-20T08:19:47Z</time>
      </trkpt>
      <trkpt lat="25.0117360" lon="121.5827920">
        <ele>165.5720000</ele>
        <time>2011-03-20T08:19:50Z</time>
      </trkpt>
      <trkpt lat="25.0117550" lon="121.5824870">
        <ele>165.6920000</ele>
        <time>2011-03-20T08:19:54Z</time>
      </trkpt>
      <trkpt lat="25.0117880" lon="121.5824200">
        <ele>165.7550000</ele>
        <time>2011-03-20T08:19:55Z</time>
      </trkpt>
      <trkpt lat="25.0118590" lon="121.5822840">
        <ele>165.5950000</ele>
        <time>2011-03-20T08:19:57Z</time>
      </trkpt>
      <trkpt lat="25.0119650" lon="121.5820810">
        <ele>165.9150000</ele>
        <time>2011-03-20T08:20:00Z</time>
      </trkpt>
      <trkpt lat="25.0121090" lon="121.5817480">
        <ele>166.7600000</ele>
        <time>2011-03-20T08:20:05Z</time>
      </trkpt>
      <trkpt lat="25.0121290" lon="121.5816820">
        <ele>166.8100000</ele>
        <time>2011-03-20T08:20:06Z</time>
      </trkpt>
      <trkpt lat="25.0121540" lon="121.5815510">
        <ele>166.8340000</ele>
        <time>2011-03-20T08:20:08Z</time>
      </trkpt>
      <trkpt lat="25.0120980" lon="121.5812900">
        <ele>166.3680000</ele>
        <time>2011-03-20T08:20:12Z</time>
      </trkpt>
      <trkpt lat="25.0119690" lon="121.5810370">
        <ele>166.1390000</ele>
        <time>2011-03-20T08:20:16Z</time>
      </trkpt>
      <trkpt lat="25.0118540" lon="121.5808130">
        <ele>165.2680000</ele>
        <time>2011-03-20T08:20:19Z</time>
      </trkpt>
      <trkpt lat="25.0118580" lon="121.5803790">
        <ele>164.7590000</ele>
        <time>2011-03-20T08:20:24Z</time>
      </trkpt>
      <trkpt lat="25.0119610" lon="121.5800580">
        <ele>164.5310000</ele>
        <time>2011-03-20T08:20:28Z</time>
      </trkpt>
      <trkpt lat="25.0121100" lon="121.5798520">
        <ele>164.0160000</ele>
        <time>2011-03-20T08:20:31Z</time>
      </trkpt>
      <trkpt lat="25.0122650" lon="121.5795360">
        <ele>164.9600000</ele>
        <time>2011-03-20T08:20:36Z</time>
      </trkpt>
      <trkpt lat="25.0122540" lon="121.5793700">
        <ele>165.4490000</ele>
        <time>2011-03-20T08:20:39Z</time>
      </trkpt>
      <trkpt lat="25.0121520" lon="121.5792250">
        <ele>165.8090000</ele>
        <time>2011-03-20T08:20:42Z</time>
      </trkpt>
      <trkpt lat="25.0120840" lon="121.5791320">
        <ele>166.0620000</ele>
        <time>2011-03-20T08:20:44Z</time>
      </trkpt>
      <trkpt lat="25.0121840" lon="121.5790030">
        <ele>166.3290000</ele>
        <time>2011-03-20T08:20:46Z</time>
      </trkpt>
      <trkpt lat="25.0122710" lon="121.5790490">
        <ele>166.8950000</ele>
        <time>2011-03-20T08:20:48Z</time>
      </trkpt>
      <trkpt lat="25.0124190" lon="121.5792520">
        <ele>168.0650000</ele>
        <time>2011-03-20T08:20:53Z</time>
      </trkpt>
      <trkpt lat="25.0124560" lon="121.5793700">
        <ele>169.4060000</ele>
        <time>2011-03-20T08:20:56Z</time>
      </trkpt>
      <trkpt lat="25.0124670" lon="121.5794160">
        <ele>169.7280000</ele>
        <time>2011-03-20T08:20:57Z</time>
      </trkpt>
      <trkpt lat="25.0124950" lon="121.5797100">
        <ele>171.1400000</ele>
        <time>2011-03-20T08:21:04Z</time>
      </trkpt>
      <trkpt lat="25.0125640" lon="121.5800080">
        <ele>172.6880000</ele>
        <time>2011-03-20T08:21:12Z</time>
      </trkpt>
      <trkpt lat="25.0126190" lon="121.5801890">
        <ele>173.2850000</ele>
        <time>2011-03-20T08:21:17Z</time>
      </trkpt>
      <trkpt lat="25.0127020" lon="121.5804120">
        <ele>170.3400000</ele>
        <time>2011-03-20T08:21:21Z</time>
      </trkpt>
      <trkpt lat="25.0127890" lon="121.5806480">
        <ele>167.6770000</ele>
        <time>2011-03-20T08:21:24Z</time>
      </trkpt>
      <trkpt lat="25.0130550" lon="121.5812230">
        <ele>161.9930000</ele>
        <time>2011-03-20T08:21:30Z</time>
      </trkpt>
      <trkpt lat="25.0131860" lon="121.5816700">
        <ele>158.7760000</ele>
        <time>2011-03-20T08:21:34Z</time>
      </trkpt>
      <trkpt lat="25.0133190" lon="121.5823830">
        <ele>155.6910000</ele>
        <time>2011-03-20T08:21:40Z</time>
      </trkpt>
      <trkpt lat="25.0133330" lon="121.5824980">
        <ele>155.4340000</ele>
        <time>2011-03-20T08:21:41Z</time>
      </trkpt>
      <trkpt lat="25.0134650" lon="121.5829400">
        <ele>153.3160000</ele>
        <time>2011-03-20T08:21:45Z</time>
      </trkpt>
      <trkpt lat="25.0137290" lon="121.5835920">
        <ele>150.2560000</ele>
        <time>2011-03-20T08:21:51Z</time>
      </trkpt>
      <trkpt lat="25.0137740" lon="121.5838270">
        <ele>148.2530000</ele>
        <time>2011-03-20T08:21:53Z</time>
      </trkpt>
      <trkpt lat="25.0139510" lon="121.5841120">
        <ele>145.1770000</ele>
        <time>2011-03-20T08:21:56Z</time>
      </trkpt>
      <trkpt lat="25.0141250" lon="121.5842420">
        <ele>143.1540000</ele>
        <time>2011-03-20T08:21:58Z</time>
      </trkpt>
      <trkpt lat="25.0144400" lon="121.5845440">
        <ele>139.1160000</ele>
        <time>2011-03-20T08:22:02Z</time>
      </trkpt>
      <trkpt lat="25.0144690" lon="121.5846480">
        <ele>137.8710000</ele>
        <time>2011-03-20T08:22:03Z</time>
      </trkpt>
      <trkpt lat="25.0146820" lon="121.5851420">
        <ele>133.4410000</ele>
        <time>2011-03-20T08:22:08Z</time>
      </trkpt>
      <trkpt lat="25.0148610" lon="121.5855060">
        <ele>128.3740000</ele>
        <time>2011-03-20T08:22:12Z</time>
      </trkpt>
      <trkpt lat="25.0149270" lon="121.5861400">
        <ele>121.8050000</ele>
        <time>2011-03-20T08:22:17Z</time>
      </trkpt>
      <trkpt lat="25.0150840" lon="121.5866310">
        <ele>119.2150000</ele>
        <time>2011-03-20T08:22:21Z</time>
      </trkpt>
      <trkpt lat="25.0152180" lon="121.5868110">
        <ele>117.7710000</ele>
        <time>2011-03-20T08:22:23Z</time>
      </trkpt>
      <trkpt lat="25.0156080" lon="121.5872730">
        <ele>112.6760000</ele>
        <time>2011-03-20T08:22:28Z</time>
      </trkpt>
      <trkpt lat="25.0159510" lon="121.5876640">
        <ele>109.0380000</ele>
        <time>2011-03-20T08:22:32Z</time>
      </trkpt>
      <trkpt lat="25.0161610" lon="121.5880000">
        <ele>105.9280000</ele>
        <time>2011-03-20T08:22:36Z</time>
      </trkpt>
      <trkpt lat="25.0164370" lon="121.5886030">
        <ele>102.1800000</ele>
        <time>2011-03-20T08:22:40Z</time>
      </trkpt>
      <trkpt lat="25.0166360" lon="121.5890620">
        <ele>101.4850000</ele>
        <time>2011-03-20T08:22:44Z</time>
      </trkpt>
      <trkpt lat="25.0167710" lon="121.5893720">
        <ele>100.4090000</ele>
        <time>2011-03-20T08:22:47Z</time>
      </trkpt>
      <trkpt lat="25.0168860" lon="121.5898890">
        <ele>98.6750000</ele>
        <time>2011-03-20T08:22:52Z</time>
      </trkpt>
      <trkpt lat="25.0169820" lon="121.5903760">
        <ele>97.8330000</ele>
        <time>2011-03-20T08:22:57Z</time>
      </trkpt>
      <trkpt lat="25.0171930" lon="121.5907960">
        <ele>97.3930000</ele>
        <time>2011-03-20T08:23:02Z</time>
      </trkpt>
      <trkpt lat="25.0174300" lon="121.5911480">
        <ele>96.3130000</ele>
        <time>2011-03-20T08:23:07Z</time>
      </trkpt>
      <trkpt lat="25.0176700" lon="121.5914910">
        <ele>95.4420000</ele>
        <time>2011-03-20T08:23:12Z</time>
      </trkpt>
      <trkpt lat="25.0179140" lon="121.5919360">
        <ele>94.8840000</ele>
        <time>2011-03-20T08:23:18Z</time>
      </trkpt>
      <trkpt lat="25.0180690" lon="121.5921170">
        <ele>93.4770000</ele>
        <time>2011-03-20T08:23:21Z</time>
      </trkpt>
      <trkpt lat="25.0185090" lon="121.5923850">
        <ele>90.8240000</ele>
        <time>2011-03-20T08:23:27Z</time>
      </trkpt>
      <trkpt lat="25.0187330" lon="121.5926590">
        <ele>89.4190000</ele>
        <time>2011-03-20T08:23:31Z</time>
      </trkpt>
      <trkpt lat="25.0188030" lon="121.5929340">
        <ele>88.4890000</ele>
        <time>2011-03-20T08:23:34Z</time>
      </trkpt>
      <trkpt lat="25.0188110" lon="121.5930230">
        <ele>88.1970000</ele>
        <time>2011-03-20T08:23:35Z</time>
      </trkpt>
      <trkpt lat="25.0188310" lon="121.5937720">
        <ele>86.6600000</ele>
        <time>2011-03-20T08:23:43Z</time>
      </trkpt>
      <trkpt lat="25.0189350" lon="121.5942020">
        <ele>85.9690000</ele>
        <time>2011-03-20T08:23:48Z</time>
      </trkpt>
      <trkpt lat="25.0190680" lon="121.5945180">
        <ele>86.1630000</ele>
        <time>2011-03-20T08:23:52Z</time>
      </trkpt>
      <trkpt lat="25.0191310" lon="121.5947510">
        <ele>85.3090000</ele>
        <time>2011-03-20T08:23:56Z</time>
      </trkpt>
      <trkpt lat="25.0191900" lon="121.5954030">
        <ele>84.5270000</ele>
        <time>2011-03-20T08:24:03Z</time>
      </trkpt>
      <trkpt lat="25.0192580" lon="121.5958100">
        <ele>83.8130000</ele>
        <time>2011-03-20T08:24:08Z</time>
      </trkpt>
      <trkpt lat="25.0194210" lon="121.5960920">
        <ele>82.7310000</ele>
        <time>2011-03-20T08:24:12Z</time>
      </trkpt>
      <trkpt lat="25.0194310" lon="121.5963370">
        <ele>81.9080000</ele>
        <time>2011-03-20T08:24:15Z</time>
      </trkpt>
      <trkpt lat="25.0194890" lon="121.5965600">
        <ele>81.3610000</ele>
        <time>2011-03-20T08:24:18Z</time>
      </trkpt>
      <trkpt lat="25.0196480" lon="121.5966600">
        <ele>80.0850000</ele>
        <time>2011-03-20T08:24:21Z</time>
      </trkpt>
      <trkpt lat="25.0198570" lon="121.5965970">
        <ele>79.1150000</ele>
        <time>2011-03-20T08:24:24Z</time>
      </trkpt>
      <trkpt lat="25.0199350" lon="121.5965580">
        <ele>78.2740000</ele>
        <time>2011-03-20T08:24:25Z</time>
      </trkpt>
      <trkpt lat="25.0200730" lon="121.5964540">
        <ele>77.6450000</ele>
        <time>2011-03-20T08:24:27Z</time>
      </trkpt>
      <trkpt lat="25.0204280" lon="121.5961800">
        <ele>75.6300000</ele>
        <time>2011-03-20T08:24:32Z</time>
      </trkpt>
      <trkpt lat="25.0208140" lon="121.5959760">
        <ele>74.5700000</ele>
        <time>2011-03-20T08:24:37Z</time>
      </trkpt>
      <trkpt lat="25.0208980" lon="121.5959550">
        <ele>73.7670000</ele>
        <time>2011-03-20T08:24:38Z</time>
      </trkpt>
      <trkpt lat="25.0217190" lon="121.5960550">
        <ele>72.2640000</ele>
        <time>2011-03-20T08:24:48Z</time>
      </trkpt>
      <trkpt lat="25.0222490" lon="121.5961590">
        <ele>71.0170000</ele>
        <time>2011-03-20T08:24:55Z</time>
      </trkpt>
      <trkpt lat="25.0227440" lon="121.5963110">
        <ele>70.2470000</ele>
        <time>2011-03-20T08:25:02Z</time>
      </trkpt>
      <trkpt lat="25.0228600" lon="121.5963960">
        <ele>70.4680000</ele>
        <time>2011-03-20T08:25:04Z</time>
      </trkpt>
      <trkpt lat="25.0231490" lon="121.5967070">
        <ele>69.6230000</ele>
        <time>2011-03-20T08:25:10Z</time>
      </trkpt>
      <trkpt lat="25.0236380" lon="121.5971970">
        <ele>68.7710000</ele>
        <time>2011-03-20T08:25:20Z</time>
      </trkpt>
      <trkpt lat="25.0239090" lon="121.5974910">
        <ele>68.7750000</ele>
        <time>2011-03-20T08:25:26Z</time>
      </trkpt>
      <trkpt lat="25.0241260" lon="121.5977490">
        <ele>68.0750000</ele>
        <time>2011-03-20T08:25:31Z</time>
      </trkpt>
      <trkpt lat="25.0243710" lon="121.5982260">
        <ele>67.9080000</ele>
        <time>2011-03-20T08:25:39Z</time>
      </trkpt>
      <trkpt lat="25.0246760" lon="121.5989530">
        <ele>65.8560000</ele>
        <time>2011-03-20T08:25:50Z</time>
      </trkpt>
      <trkpt lat="25.0249680" lon="121.5996450">
        <ele>64.7250000</ele>
        <time>2011-03-20T08:26:00Z</time>
      </trkpt>
      <trkpt lat="25.0251400" lon="121.6000740">
        <ele>65.1120000</ele>
        <time>2011-03-20T08:26:07Z</time>
      </trkpt>
      <trkpt lat="25.0252560" lon="121.6003350">
        <ele>66.7740000</ele>
        <time>2011-03-20T08:26:12Z</time>
      </trkpt>
      <trkpt lat="25.0253790" lon="121.6005280">
        <ele>67.9930000</ele>
        <time>2011-03-20T08:26:18Z</time>
      </trkpt>
      <trkpt lat="25.0255600" lon="121.6007280">
        <ele>69.6320000</ele>
        <time>2011-03-20T08:26:27Z</time>
      </trkpt>
      <trkpt lat="25.0256330" lon="121.6008960">
        <ele>70.2920000</ele>
        <time>2011-03-20T08:26:33Z</time>
      </trkpt>
      <trkpt lat="25.0255790" lon="121.6011130">
        <ele>70.9820000</ele>
        <time>2011-03-20T08:26:39Z</time>
      </trkpt>
      <trkpt lat="25.0255810" lon="121.6013630">
        <ele>71.6130000</ele>
        <time>2011-03-20T08:26:44Z</time>
      </trkpt>
      <trkpt lat="25.0256020" lon="121.6014040">
        <ele>71.3830000</ele>
        <time>2011-03-20T08:26:45Z</time>
      </trkpt>
      <trkpt lat="25.0256830" lon="121.6016790">
        <ele>70.7160000</ele>
        <time>2011-03-20T08:26:51Z</time>
      </trkpt>
      <trkpt lat="25.0255900" lon="121.6018840">
        <ele>70.4630000</ele>
        <time>2011-03-20T08:26:55Z</time>
      </trkpt>
      <trkpt lat="25.0255250" lon="121.6019810">
        <ele>69.4360000</ele>
        <time>2011-03-20T08:26:58Z</time>
      </trkpt>
      <trkpt lat="25.0255500" lon="121.6021640">
        <ele>69.4360000</ele>
        <time>2011-03-20T08:26:59Z</time>
      </trkpt>
      <trkpt lat="25.0255710" lon="121.6023180">
        <ele>67.6480000</ele>
        <time>2011-03-20T08:27:01Z</time>
      </trkpt>
      <trkpt lat="25.0255480" lon="121.6026460">
        <ele>63.4350000</ele>
        <time>2011-03-20T08:27:05Z</time>
      </trkpt>
      <trkpt lat="25.0255770" lon="121.6030720">
        <ele>59.5570000</ele>
        <time>2011-03-20T08:27:09Z</time>
      </trkpt>
      <trkpt lat="25.0257520" lon="121.6032470">
        <ele>58.0870000</ele>
        <time>2011-03-20T08:27:12Z</time>
      </trkpt>
      <trkpt lat="25.0258100" lon="121.6032790">
        <ele>57.9380000</ele>
        <time>2011-03-20T08:27:13Z</time>
      </trkpt>
      <trkpt lat="25.0262020" lon="121.6035050">
        <ele>53.1940000</ele>
        <time>2011-03-20T08:27:19Z</time>
      </trkpt>
      <trkpt lat="25.0265170" lon="121.6037680">
        <ele>50.0040000</ele>
        <time>2011-03-20T08:27:23Z</time>
      </trkpt>
      <trkpt lat="25.0266640" lon="121.6039250">
        <ele>48.2460000</ele>
        <time>2011-03-20T08:27:25Z</time>
      </trkpt>
      <trkpt lat="25.0269010" lon="121.6043310">
        <ele>43.9250000</ele>
        <time>2011-03-20T08:27:29Z</time>
      </trkpt>
      <trkpt lat="25.0269600" lon="121.6044360">
        <ele>42.7890000</ele>
        <time>2011-03-20T08:27:30Z</time>
      </trkpt>
      <trkpt lat="25.0272090" lon="121.6046700">
        <ele>41.1600000</ele>
        <time>2011-03-20T08:27:34Z</time>
      </trkpt>
      <trkpt lat="25.0274320" lon="121.6047150">
        <ele>40.8820000</ele>
        <time>2011-03-20T08:27:37Z</time>
      </trkpt>
      <trkpt lat="25.0274990" lon="121.6048030">
        <ele>40.2340000</ele>
        <time>2011-03-20T08:27:39Z</time>
      </trkpt>
      <trkpt lat="25.0275020" lon="121.6048860">
        <ele>39.9060000</ele>
        <time>2011-03-20T08:27:40Z</time>
      </trkpt>
      <trkpt lat="25.0275150" lon="121.6050530">
        <ele>39.5340000</ele>
        <time>2011-03-20T08:27:42Z</time>
      </trkpt>
      <trkpt lat="25.0275870" lon="121.6053310">
        <ele>38.1570000</ele>
        <time>2011-03-20T08:27:45Z</time>
      </trkpt>
      <trkpt lat="25.0278860" lon="121.6056750">
        <ele>36.7390000</ele>
        <time>2011-03-20T08:27:50Z</time>
      </trkpt>
      <trkpt lat="25.0279500" lon="121.6057450">
        <ele>36.7750000</ele>
        <time>2011-03-20T08:27:51Z</time>
      </trkpt>
      <trkpt lat="25.0282660" lon="121.6060550">
        <ele>35.8140000</ele>
        <time>2011-03-20T08:27:56Z</time>
      </trkpt>
      <trkpt lat="25.0283790" lon="121.6062400">
        <ele>36.2790000</ele>
        <time>2011-03-20T08:27:59Z</time>
      </trkpt>
      <trkpt lat="25.0283430" lon="121.6063800">
        <ele>36.5720000</ele>
        <time>2011-03-20T08:28:01Z</time>
      </trkpt>
      <trkpt lat="25.0283350" lon="121.6067030">
        <ele>35.8210000</ele>
        <time>2011-03-20T08:28:05Z</time>
      </trkpt>
      <trkpt lat="25.0284520" lon="121.6069540">
        <ele>35.1660000</ele>
        <time>2011-03-20T08:28:09Z</time>
      </trkpt>
      <trkpt lat="25.0285490" lon="121.6071630">
        <ele>34.6790000</ele>
        <time>2011-03-20T08:28:12Z</time>
      </trkpt>
      <trkpt lat="25.0288110" lon="121.6074490">
        <ele>33.6890000</ele>
        <time>2011-03-20T08:28:17Z</time>
      </trkpt>
      <trkpt lat="25.0291190" lon="121.6077010">
        <ele>32.8190000</ele>
        <time>2011-03-20T08:28:22Z</time>
      </trkpt>
      <trkpt lat="25.0294290" lon="121.6080910">
        <ele>31.7290000</ele>
        <time>2011-03-20T08:28:28Z</time>
      </trkpt>
      <trkpt lat="25.0296180" lon="121.6083670">
        <ele>31.0670000</ele>
        <time>2011-03-20T08:28:32Z</time>
      </trkpt>
      <trkpt lat="25.0299660" lon="121.6086810">
        <ele>30.7410000</ele>
        <time>2011-03-20T08:28:38Z</time>
      </trkpt>
      <trkpt lat="25.0302100" lon="121.6090770">
        <ele>30.3650000</ele>
        <time>2011-03-20T08:28:44Z</time>
      </trkpt>
      <trkpt lat="25.0304020" lon="121.6094310">
        <ele>29.7710000</ele>
        <time>2011-03-20T08:28:50Z</time>
      </trkpt>
      <trkpt lat="25.0307250" lon="121.6100280">
        <ele>29.6580000</ele>
        <time>2011-03-20T08:29:00Z</time>
      </trkpt>
      <trkpt lat="25.0308580" lon="121.6102560">
        <ele>29.7020000</ele>
        <time>2011-03-20T08:29:04Z</time>
      </trkpt>
      <trkpt lat="25.0310910" lon="121.6104760">
        <ele>29.9600000</ele>
        <time>2011-03-20T08:29:09Z</time>
      </trkpt>
      <trkpt lat="25.0315170" lon="121.6107540">
        <ele>29.7610000</ele>
        <time>2011-03-20T08:29:17Z</time>
      </trkpt>
      <trkpt lat="25.0317220" lon="121.6108880">
        <ele>29.9280000</ele>
        <time>2011-03-20T08:29:21Z</time>
      </trkpt>
      <trkpt lat="25.0322070" lon="121.6111790">
        <ele>29.8650000</ele>
        <time>2011-03-20T08:29:30Z</time>
      </trkpt>
      <trkpt lat="25.0324270" lon="121.6111970">
        <ele>28.9800000</ele>
        <time>2011-03-20T08:29:34Z</time>
      </trkpt>
      <trkpt lat="25.0327270" lon="121.6110840">
        <ele>27.5720000</ele>
        <time>2011-03-20T08:29:39Z</time>
      </trkpt>
      <trkpt lat="25.0328440" lon="121.6110130">
        <ele>27.1510000</ele>
        <time>2011-03-20T08:29:41Z</time>
      </trkpt>
      <trkpt lat="25.0330710" lon="121.6108250">
        <ele>26.0990000</ele>
        <time>2011-03-20T08:29:45Z</time>
      </trkpt>
      <trkpt lat="25.0333130" lon="121.6107280">
        <ele>24.9300000</ele>
        <time>2011-03-20T08:29:49Z</time>
      </trkpt>
      <trkpt lat="25.0334620" lon="121.6108410">
        <ele>24.3480000</ele>
        <time>2011-03-20T08:29:52Z</time>
      </trkpt>
      <trkpt lat="25.0336000" lon="121.6109780">
        <ele>23.8010000</ele>
        <time>2011-03-20T08:29:55Z</time>
      </trkpt>
      <trkpt lat="25.0336150" lon="121.6109930">
        <ele>23.7360000</ele>
        <time>2011-03-20T08:29:56Z</time>
      </trkpt>
      <trkpt lat="25.0335250" lon="121.6112350">
        <ele>23.7510000</ele>
        <time>2011-03-20T08:30:00Z</time>
      </trkpt>
    </trkseg>
  </trk>
</gpx>
