<?xml version="1.0" encoding="UTF-8"?>
<gpx
 version="1.0"
creator="GPSBabel - http://www.gpsbabel.org"
xmlns:xsi="http://www.w3.org/2001/XMLSchema-instance"
xmlns="http://www.topografix.com/GPX/1/0"
xsi:schemaLocation="http://www.topografix.com/GPX/1/0 http://www.topografix.com/GPX/1/0/gpx.xsd">
<time>2009-12-04T14:10:25Z</time>
<bounds minlat="24.847950000" minlon="121.504540000" maxlat="25.052980000" maxlon="121.617620000"/>
<trk>
<trkseg>
<trkpt lat="24.979350000" lon="121.552220000">
  <ele>0.000000</ele>
</trkpt>
<trkpt lat="24.973380000" lon="121.542820000">
  <ele>0.000000</ele>
</trkpt>
<trkpt lat="24.970850000" lon="121.542820000">
  <ele>0.000000</ele>
</trkpt>
<trkpt lat="24.959150000" lon="121.537880000">
  <ele>0.000000</ele>
</trkpt>
<trkpt lat="24.958300000" lon="121.538070000">
  <ele>0.000000</ele>
</trkpt>
<trkpt lat="24.957880000" lon="121.538480000">
  <ele>0.000000</ele>
</trkpt>
<trkpt lat="24.958180000" lon="121.538360000">
  <ele>0.000000</ele>
</trkpt>
<trkpt lat="24.957930000" lon="121.538500000">
  <ele>0.000000</ele>
</trkpt>
<trkpt lat="24.958430000" lon="121.537960000">
  <ele>0.000000</ele>
</trkpt>
<trkpt lat="24.958100000" lon="121.538380000">
  <ele>0.000000</ele>
</trkpt>
<trkpt lat="24.958850000" lon="121.538020000">
  <ele>0.000000</ele>
</trkpt>
<trkpt lat="24.958980000" lon="121.538290000">
  <ele>0.000000</ele>
</trkpt>
<trkpt lat="24.960770000" lon="121.538720000">
  <ele>0.000000</ele>
</trkpt>
<trkpt lat="24.961740000" lon="121.539200000">
  <ele>0.000000</ele>
</trkpt>
<trkpt lat="24.962040000" lon="121.538980000">
  <ele>0.000000</ele>
</trkpt>
<trkpt lat="24.961430000" lon="121.537230000">
  <ele>0.000000</ele>
</trkpt>
<trkpt lat="24.960550000" lon="121.532630000">
  <ele>0.000000</ele>
</trkpt>
<trkpt lat="24.960890000" lon="121.531990000">
  <ele>0.000000</ele>
</trkpt>
<trkpt lat="24.961100000" lon="121.530580000">
  <ele>0.000000</ele>
</trkpt>
<trkpt lat="24.960750000" lon="121.530540000">
  <ele>0.000000</ele>
</trkpt>
<trkpt lat="24.960280000" lon="121.529660000">
  <ele>0.000000</ele>
</trkpt>
<trkpt lat="24.956530000" lon="121.528860000">
  <ele>0.000000</ele>
</trkpt>
<trkpt lat="24.955720000" lon="121.528390000">
  <ele>0.000000</ele>
</trkpt>
<trkpt lat="24.954440000" lon="121.528400000">
  <ele>0.000000</ele>
</trkpt>
<trkpt lat="24.954090000" lon="121.528980000">
  <ele>0.000000</ele>
</trkpt>
<trkpt lat="24.954670000" lon="121.528810000">
  <ele>0.000000</ele>
</trkpt>
<trkpt lat="24.955080000" lon="121.528980000">
  <ele>0.000000</ele>
</trkpt>
<trkpt lat="24.955250000" lon="121.529860000">
  <ele>0.000000</ele>
</trkpt>
<trkpt lat="24.955090000" lon="121.530110000">
  <ele>0.000000</ele>
</trkpt>
<trkpt lat="24.953160000" lon="121.529160000">
  <ele>0.000000</ele>
</trkpt>
<trkpt lat="24.952590000" lon="121.529220000">
  <ele>0.000000</ele>
</trkpt>
<trkpt lat="24.952230000" lon="121.529650000">
  <ele>0.000000</ele>
</trkpt>
<trkpt lat="24.951140000" lon="121.529950000">
  <ele>0.000000</ele>
</trkpt>
<trkpt lat="24.950460000" lon="121.529450000">
  <ele>0.000000</ele>
</trkpt>
<trkpt lat="24.949940000" lon="121.529590000">
  <ele>0.000000</ele>
</trkpt>
<trkpt lat="24.948730000" lon="121.528770000">
  <ele>0.000000</ele>
</trkpt>
<trkpt lat="24.947750000" lon="121.528420000">
  <ele>0.000000</ele>
</trkpt>
<trkpt lat="24.947710000" lon="121.527860000">
  <ele>0.000000</ele>
</trkpt>
<trkpt lat="24.947020000" lon="121.527180000">
  <ele>0.000000</ele>
</trkpt>
<trkpt lat="24.946580000" lon="121.525680000">
  <ele>0.000000</ele>
</trkpt>
<trkpt lat="24.945590000" lon="121.524090000">
  <ele>0.000000</ele>
</trkpt>
<trkpt lat="24.944430000" lon="121.523250000">
  <ele>0.000000</ele>
</trkpt>
<trkpt lat="24.943090000" lon="121.522990000">
  <ele>0.000000</ele>
</trkpt>
<trkpt lat="24.941580000" lon="121.523770000">
  <ele>0.000000</ele>
</trkpt>
<trkpt lat="24.942470000" lon="121.526400000">
  <ele>0.000000</ele>
</trkpt>
<trkpt lat="24.943710000" lon="121.526140000">
  <ele>0.000000</ele>
</trkpt>
<trkpt lat="24.944540000" lon="121.526580000">
  <ele>0.000000</ele>
</trkpt>
<trkpt lat="24.944950000" lon="121.527230000">
  <ele>0.000000</ele>
</trkpt>
<trkpt lat="24.945570000" lon="121.529410000">
  <ele>0.000000</ele>
</trkpt>
<trkpt lat="24.945700000" lon="121.532830000">
  <ele>0.000000</ele>
</trkpt>
<trkpt lat="24.945080000" lon="121.534570000">
  <ele>0.000000</ele>
</trkpt>
<trkpt lat="24.944140000" lon="121.535590000">
  <ele>0.000000</ele>
</trkpt>
<trkpt lat="24.943270000" lon="121.535900000">
  <ele>0.000000</ele>
</trkpt>
<trkpt lat="24.941910000" lon="121.531680000">
  <ele>0.000000</ele>
</trkpt>
<trkpt lat="24.938680000" lon="121.532010000">
  <ele>0.000000</ele>
</trkpt>
<trkpt lat="24.936040000" lon="121.531670000">
  <ele>0.000000</ele>
</trkpt>
<trkpt lat="24.935390000" lon="121.531150000">
  <ele>0.000000</ele>
</trkpt>
<trkpt lat="24.934710000" lon="121.531630000">
  <ele>0.000000</ele>
</trkpt>
<trkpt lat="24.934790000" lon="121.532260000">
  <ele>0.000000</ele>
</trkpt>
<trkpt lat="24.934610000" lon="121.532490000">
  <ele>0.000000</ele>
</trkpt>
<trkpt lat="24.934070000" lon="121.532470000">
  <ele>0.000000</ele>
</trkpt>
<trkpt lat="24.933580000" lon="121.532850000">
  <ele>0.000000</ele>
</trkpt>
<trkpt lat="24.933270000" lon="121.532760000">
  <ele>0.000000</ele>
</trkpt>
<trkpt lat="24.930940000" lon="121.533830000">
  <ele>0.000000</ele>
</trkpt>
<trkpt lat="24.930640000" lon="121.533700000">
  <ele>0.000000</ele>
</trkpt>
<trkpt lat="24.930030000" lon="121.534270000">
  <ele>0.000000</ele>
</trkpt>
<trkpt lat="24.929290000" lon="121.534390000">
  <ele>0.000000</ele>
</trkpt>
<trkpt lat="24.928100000" lon="121.534060000">
  <ele>0.000000</ele>
</trkpt>
<trkpt lat="24.928030000" lon="121.533620000">
  <ele>0.000000</ele>
</trkpt>
<trkpt lat="24.927410000" lon="121.533010000">
  <ele>0.000000</ele>
</trkpt>
<trkpt lat="24.926650000" lon="121.533670000">
  <ele>0.000000</ele>
</trkpt>
<trkpt lat="24.926650000" lon="121.535030000">
  <ele>0.000000</ele>
</trkpt>
<trkpt lat="24.926890000" lon="121.535680000">
  <ele>0.000000</ele>
</trkpt>
<trkpt lat="24.927150000" lon="121.535780000">
  <ele>0.000000</ele>
</trkpt>
<trkpt lat="24.927170000" lon="121.536440000">
  <ele>0.000000</ele>
</trkpt>
<trkpt lat="24.926450000" lon="121.536420000">
  <ele>0.000000</ele>
</trkpt>
<trkpt lat="24.926030000" lon="121.536100000">
  <ele>0.000000</ele>
</trkpt>
<trkpt lat="24.925790000" lon="121.536410000">
  <ele>0.000000</ele>
</trkpt>
<trkpt lat="24.926710000" lon="121.537320000">
  <ele>0.000000</ele>
</trkpt>
<trkpt lat="24.926430000" lon="121.537660000">
  <ele>0.000000</ele>
</trkpt>
<trkpt lat="24.926010000" lon="121.537430000">
  <ele>0.000000</ele>
</trkpt>
<trkpt lat="24.925480000" lon="121.539040000">
  <ele>0.000000</ele>
</trkpt>
<trkpt lat="24.925440000" lon="121.539930000">
  <ele>0.000000</ele>
</trkpt>
<trkpt lat="24.925670000" lon="121.539780000">
  <ele>0.000000</ele>
</trkpt>
<trkpt lat="24.925980000" lon="121.540430000">
  <ele>0.000000</ele>
</trkpt>
<trkpt lat="24.927510000" lon="121.540770000">
  <ele>0.000000</ele>
</trkpt>
<trkpt lat="24.928270000" lon="121.541400000">
  <ele>0.000000</ele>
</trkpt>
<trkpt lat="24.928380000" lon="121.541930000">
  <ele>0.000000</ele>
</trkpt>
<trkpt lat="24.928700000" lon="121.542080000">
  <ele>0.000000</ele>
</trkpt>
<trkpt lat="24.929590000" lon="121.543630000">
  <ele>0.000000</ele>
</trkpt>
<trkpt lat="24.929010000" lon="121.545040000">
  <ele>0.000000</ele>
</trkpt>
<trkpt lat="24.929310000" lon="121.546120000">
  <ele>0.000000</ele>
</trkpt>
<trkpt lat="24.928490000" lon="121.547000000">
  <ele>0.000000</ele>
</trkpt>
<trkpt lat="24.928130000" lon="121.548330000">
  <ele>0.000000</ele>
</trkpt>
<trkpt lat="24.924800000" lon="121.548780000">
  <ele>0.000000</ele>
</trkpt>
<trkpt lat="24.924260000" lon="121.549120000">
  <ele>0.000000</ele>
</trkpt>
<trkpt lat="24.922880000" lon="121.549360000">
  <ele>0.000000</ele>
</trkpt>
<trkpt lat="24.922110000" lon="121.549260000">
  <ele>0.000000</ele>
</trkpt>
<trkpt lat="24.919710000" lon="121.549580000">
  <ele>0.000000</ele>
</trkpt>
<trkpt lat="24.917650000" lon="121.547960000">
  <ele>0.000000</ele>
</trkpt>
<trkpt lat="24.915340000" lon="121.547490000">
  <ele>0.000000</ele>
</trkpt>
<trkpt lat="24.911140000" lon="121.549650000">
  <ele>0.000000</ele>
</trkpt>
<trkpt lat="24.909310000" lon="121.551560000">
  <ele>0.000000</ele>
</trkpt>
<trkpt lat="24.906700000" lon="121.551740000">
  <ele>0.000000</ele>
</trkpt>
<trkpt lat="24.906120000" lon="121.552570000">
  <ele>0.000000</ele>
</trkpt>
<trkpt lat="24.905620000" lon="121.552880000">
  <ele>0.000000</ele>
</trkpt>
<trkpt lat="24.905360000" lon="121.553440000">
  <ele>0.000000</ele>
</trkpt>
<trkpt lat="24.904230000" lon="121.554200000">
  <ele>0.000000</ele>
</trkpt>
<trkpt lat="24.903190000" lon="121.552650000">
  <ele>0.000000</ele>
</trkpt>
<trkpt lat="24.901060000" lon="121.550530000">
  <ele>0.000000</ele>
</trkpt>
<trkpt lat="24.898330000" lon="121.549750000">
  <ele>0.000000</ele>
</trkpt>
<trkpt lat="24.896350000" lon="121.546970000">
  <ele>0.000000</ele>
</trkpt>
<trkpt lat="24.894720000" lon="121.545960000">
  <ele>0.000000</ele>
</trkpt>
<trkpt lat="24.893230000" lon="121.546410000">
  <ele>0.000000</ele>
</trkpt>
<trkpt lat="24.892560000" lon="121.547170000">
  <ele>0.000000</ele>
</trkpt>
<trkpt lat="24.891760000" lon="121.549880000">
  <ele>0.000000</ele>
</trkpt>
<trkpt lat="24.891100000" lon="121.550660000">
  <ele>0.000000</ele>
</trkpt>
<trkpt lat="24.888910000" lon="121.552000000">
  <ele>0.000000</ele>
</trkpt>
<trkpt lat="24.886570000" lon="121.552050000">
  <ele>0.000000</ele>
</trkpt>
<trkpt lat="24.886220000" lon="121.551620000">
  <ele>0.000000</ele>
</trkpt>
<trkpt lat="24.885350000" lon="121.551740000">
  <ele>0.000000</ele>
</trkpt>
<trkpt lat="24.885010000" lon="121.550750000">
  <ele>0.000000</ele>
</trkpt>
<trkpt lat="24.884300000" lon="121.550170000">
  <ele>0.000000</ele>
</trkpt>
<trkpt lat="24.884420000" lon="121.549190000">
  <ele>0.000000</ele>
</trkpt>
<trkpt lat="24.883810000" lon="121.546940000">
  <ele>0.000000</ele>
</trkpt>
<trkpt lat="24.883940000" lon="121.545970000">
  <ele>0.000000</ele>
</trkpt>
<trkpt lat="24.884440000" lon="121.545030000">
  <ele>0.000000</ele>
</trkpt>
<trkpt lat="24.884180000" lon="121.543510000">
  <ele>0.000000</ele>
</trkpt>
<trkpt lat="24.883290000" lon="121.543780000">
  <ele>0.000000</ele>
</trkpt>
<trkpt lat="24.882180000" lon="121.543480000">
  <ele>0.000000</ele>
</trkpt>
<trkpt lat="24.881370000" lon="121.542550000">
  <ele>0.000000</ele>
</trkpt>
<trkpt lat="24.879470000" lon="121.542240000">
  <ele>0.000000</ele>
</trkpt>
<trkpt lat="24.878990000" lon="121.542620000">
  <ele>0.000000</ele>
</trkpt>
<trkpt lat="24.878030000" lon="121.542820000">
  <ele>0.000000</ele>
</trkpt>
<trkpt lat="24.875250000" lon="121.544380000">
  <ele>0.000000</ele>
</trkpt>
<trkpt lat="24.875400000" lon="121.545660000">
  <ele>0.000000</ele>
</trkpt>
<trkpt lat="24.874620000" lon="121.547120000">
  <ele>0.000000</ele>
</trkpt>
<trkpt lat="24.871850000" lon="121.547790000">
  <ele>0.000000</ele>
</trkpt>
<trkpt lat="24.870160000" lon="121.547410000">
  <ele>0.000000</ele>
</trkpt>
<trkpt lat="24.869520000" lon="121.547730000">
  <ele>0.000000</ele>
</trkpt>
<trkpt lat="24.868610000" lon="121.549150000">
  <ele>0.000000</ele>
</trkpt>
<trkpt lat="24.868160000" lon="121.550480000">
  <ele>0.000000</ele>
</trkpt>
<trkpt lat="24.867310000" lon="121.551180000">
  <ele>0.000000</ele>
</trkpt>
<trkpt lat="24.865330000" lon="121.551210000">
  <ele>0.000000</ele>
</trkpt>
<trkpt lat="24.864690000" lon="121.551850000">
  <ele>0.000000</ele>
</trkpt>
<trkpt lat="24.863540000" lon="121.551390000">
  <ele>0.000000</ele>
</trkpt>
<trkpt lat="24.862340000" lon="121.551500000">
  <ele>0.000000</ele>
</trkpt>
<trkpt lat="24.861840000" lon="121.550990000">
  <ele>0.000000</ele>
</trkpt>
<trkpt lat="24.862280000" lon="121.550550000">
  <ele>0.000000</ele>
</trkpt>
<trkpt lat="24.863260000" lon="121.550290000">
  <ele>0.000000</ele>
</trkpt>
<trkpt lat="24.863300000" lon="121.550490000">
  <ele>0.000000</ele>
</trkpt>
<trkpt lat="24.862280000" lon="121.550590000">
  <ele>0.000000</ele>
</trkpt>
<trkpt lat="24.861330000" lon="121.551620000">
  <ele>0.000000</ele>
</trkpt>
<trkpt lat="24.857480000" lon="121.551420000">
  <ele>0.000000</ele>
</trkpt>
<trkpt lat="24.856790000" lon="121.551700000">
  <ele>0.000000</ele>
</trkpt>
<trkpt lat="24.854140000" lon="121.551230000">
  <ele>0.000000</ele>
</trkpt>
<trkpt lat="24.853390000" lon="121.551550000">
  <ele>0.000000</ele>
</trkpt>
<trkpt lat="24.851910000" lon="121.552870000">
  <ele>0.000000</ele>
</trkpt>
<trkpt lat="24.851540000" lon="121.552980000">
  <ele>0.000000</ele>
</trkpt>
<trkpt lat="24.849550000" lon="121.551860000">
  <ele>0.000000</ele>
</trkpt>
<trkpt lat="24.848890000" lon="121.551820000">
  <ele>0.000000</ele>
</trkpt>
<trkpt lat="24.847950000" lon="121.551410000">
  <ele>0.000000</ele>
</trkpt>
<trkpt lat="24.849710000" lon="121.551960000">
  <ele>0.000000</ele>
</trkpt>
<trkpt lat="24.851830000" lon="121.553030000">
  <ele>0.000000</ele>
</trkpt>
<trkpt lat="24.853100000" lon="121.551850000">
  <ele>0.000000</ele>
</trkpt>
<trkpt lat="24.852960000" lon="121.551830000">
  <ele>0.000000</ele>
</trkpt>
<trkpt lat="24.853530000" lon="121.551370000">
  <ele>0.000000</ele>
</trkpt>
<trkpt lat="24.854210000" lon="121.551260000">
  <ele>0.000000</ele>
</trkpt>
</trkseg>
</trk>
</gpx>
